DM Object: cubit(FourSquareQ-large.exo): 12/02/2017: 09:20:39 2 MPI processes
  type: plex
cubit(FourSquareQ-large.exo): 12/02/2017: 09:20:39 in 2 dimensions:
  Number of 0-cells per rank: 49 0
  Number of 1-cells per rank: 84 0
  Number of 2-cells per rank: 36 0
Labels:
  celltype: 3 strata with value/size (0 (49), 1 (84), 4 (36))
  depth: 3 strata with value/size (0 (49), 1 (84), 2 (36))
  Cell Sets: 4 strata with value/size (1 (9), 2 (9), 3 (9), 5 (9))
PetscViewer Object: 2 MPI processes
  type: exodusii
  Filename:    FourSquareQ-large_out.exo
  exoid:       -1
  IO Mode:     1
  Mesh order:  2
PetscViewer Object: 2 MPI processes
  type: exodusii
  Filename:    FourSquareQ-large_out.exo
  exoid:       65536
  IO Mode:     1
  Mesh order:  2
PetscSection Object: 2 MPI processes
  type not yet set
3 fields
  field 0 "U" with 2 components
Process 0:
  (   0) dim  2 offset   0
  (   1) dim  2 offset   6
  (   2) dim  2 offset  12
  (   3) dim  2 offset  18
  (   4) dim  2 offset  24
  (   5) dim  2 offset  30
  (   6) dim  2 offset  36
  (   7) dim  2 offset  42
  (   8) dim  2 offset  48
  (   9) dim  2 offset  54
  (  10) dim  2 offset  60
  (  11) dim  2 offset  66
  (  12) dim  2 offset  72
  (  13) dim  2 offset  78
  (  14) dim  2 offset  84
  (  15) dim  2 offset  90
  (  16) dim  2 offset  96
  (  17) dim  2 offset 102
  (  18) dim  2 offset 108
  (  19) dim  2 offset 114
  (  20) dim  2 offset 120
  (  21) dim  2 offset 126
  (  22) dim  2 offset 132
  (  23) dim  2 offset 138
  (  24) dim  2 offset 144
  (  25) dim  2 offset 150
  (  26) dim  2 offset 156
  (  27) dim  2 offset 162
  (  28) dim  2 offset 168
  (  29) dim  2 offset 174
  (  30) dim  2 offset 180
  (  31) dim  2 offset 186
  (  32) dim  2 offset 192
  (  33) dim  2 offset 198
  (  34) dim  2 offset 204
  (  35) dim  2 offset 210
  (  36) dim  2 offset 216
  (  37) dim  2 offset 219
  (  38) dim  2 offset 222
  (  39) dim  2 offset 225
  (  40) dim  2 offset 228
  (  41) dim  2 offset 231
  (  42) dim  2 offset 234
  (  43) dim  2 offset 237
  (  44) dim  2 offset 240
  (  45) dim  2 offset 243
  (  46) dim  2 offset 246
  (  47) dim  2 offset 249
  (  48) dim  2 offset 252
  (  49) dim  2 offset 255
  (  50) dim  2 offset 258
  (  51) dim  2 offset 261
  (  52) dim  2 offset 264
  (  53) dim  2 offset 267
  (  54) dim  2 offset 270
  (  55) dim  2 offset 273
  (  56) dim  2 offset 276
  (  57) dim  2 offset 279
  (  58) dim  2 offset 282
  (  59) dim  2 offset 285
  (  60) dim  2 offset 288
  (  61) dim  2 offset 291
  (  62) dim  2 offset 294
  (  63) dim  2 offset 297
  (  64) dim  2 offset 300
  (  65) dim  2 offset 303
  (  66) dim  2 offset 306
  (  67) dim  2 offset 309
  (  68) dim  2 offset 312
  (  69) dim  2 offset 315
  (  70) dim  2 offset 318
  (  71) dim  2 offset 321
  (  72) dim  2 offset 324
  (  73) dim  2 offset 327
  (  74) dim  2 offset 330
  (  75) dim  2 offset 333
  (  76) dim  2 offset 336
  (  77) dim  2 offset 339
  (  78) dim  2 offset 342
  (  79) dim  2 offset 345
  (  80) dim  2 offset 348
  (  81) dim  2 offset 351
  (  82) dim  2 offset 354
  (  83) dim  2 offset 357
  (  84) dim  2 offset 360
  (  85) dim  2 offset 363
  (  86) dim  2 offset 366
  (  87) dim  2 offset 369
  (  88) dim  2 offset 372
  (  89) dim  2 offset 375
  (  90) dim  2 offset 378
  (  91) dim  2 offset 381
  (  92) dim  2 offset 384
  (  93) dim  2 offset 387
  (  94) dim  2 offset 390
  (  95) dim  2 offset 393
  (  96) dim  2 offset 396
  (  97) dim  2 offset 399
  (  98) dim  2 offset 402
  (  99) dim  2 offset 405
  ( 100) dim  2 offset 408
  ( 101) dim  2 offset 411
  ( 102) dim  2 offset 414
  ( 103) dim  2 offset 417
  ( 104) dim  2 offset 420
  ( 105) dim  2 offset 423
  ( 106) dim  2 offset 426
  ( 107) dim  2 offset 429
  ( 108) dim  2 offset 432
  ( 109) dim  2 offset 435
  ( 110) dim  2 offset 438
  ( 111) dim  2 offset 441
  ( 112) dim  2 offset 444
  ( 113) dim  2 offset 447
  ( 114) dim  2 offset 450
  ( 115) dim  2 offset 453
  ( 116) dim  2 offset 456
  ( 117) dim  2 offset 459
  ( 118) dim  2 offset 462
  ( 119) dim  2 offset 465
  ( 120) dim  2 offset 468
  ( 121) dim  2 offset 471
  ( 122) dim  2 offset 474
  ( 123) dim  2 offset 477
  ( 124) dim  2 offset 480
  ( 125) dim  2 offset 483
  ( 126) dim  2 offset 486
  ( 127) dim  2 offset 489
  ( 128) dim  2 offset 492
  ( 129) dim  2 offset 495
  ( 130) dim  2 offset 498
  ( 131) dim  2 offset 501
  ( 132) dim  2 offset 504
  ( 133) dim  2 offset 507
  ( 134) dim  2 offset 510
  ( 135) dim  2 offset 513
  ( 136) dim  2 offset 516
  ( 137) dim  2 offset 519
  ( 138) dim  2 offset 522
  ( 139) dim  2 offset 525
  ( 140) dim  2 offset 528
  ( 141) dim  2 offset 531
  ( 142) dim  2 offset 534
  ( 143) dim  2 offset 537
  ( 144) dim  2 offset 540
  ( 145) dim  2 offset 543
  ( 146) dim  2 offset 546
  ( 147) dim  2 offset 549
  ( 148) dim  2 offset 552
  ( 149) dim  2 offset 555
  ( 150) dim  2 offset 558
  ( 151) dim  2 offset 561
  ( 152) dim  2 offset 564
  ( 153) dim  2 offset 567
  ( 154) dim  2 offset 570
  ( 155) dim  2 offset 573
  ( 156) dim  2 offset 576
  ( 157) dim  2 offset 579
  ( 158) dim  2 offset 582
  ( 159) dim  2 offset 585
  ( 160) dim  2 offset 588
  ( 161) dim  2 offset 591
  ( 162) dim  2 offset 594
  ( 163) dim  2 offset 597
  ( 164) dim  2 offset 600
  ( 165) dim  2 offset 603
  ( 166) dim  2 offset 606
  ( 167) dim  2 offset 609
  ( 168) dim  2 offset 612
Process 1:
  field 1 "Sigma" with 3 components
Process 0:
  (   0) dim  3 offset   2
  (   1) dim  3 offset   8
  (   2) dim  3 offset  14
  (   3) dim  3 offset  20
  (   4) dim  3 offset  26
  (   5) dim  3 offset  32
  (   6) dim  3 offset  38
  (   7) dim  3 offset  44
  (   8) dim  3 offset  50
  (   9) dim  3 offset  56
  (  10) dim  3 offset  62
  (  11) dim  3 offset  68
  (  12) dim  3 offset  74
  (  13) dim  3 offset  80
  (  14) dim  3 offset  86
  (  15) dim  3 offset  92
  (  16) dim  3 offset  98
  (  17) dim  3 offset 104
  (  18) dim  3 offset 110
  (  19) dim  3 offset 116
  (  20) dim  3 offset 122
  (  21) dim  3 offset 128
  (  22) dim  3 offset 134
  (  23) dim  3 offset 140
  (  24) dim  3 offset 146
  (  25) dim  3 offset 152
  (  26) dim  3 offset 158
  (  27) dim  3 offset 164
  (  28) dim  3 offset 170
  (  29) dim  3 offset 176
  (  30) dim  3 offset 182
  (  31) dim  3 offset 188
  (  32) dim  3 offset 194
  (  33) dim  3 offset 200
  (  34) dim  3 offset 206
  (  35) dim  3 offset 212
  (  36) dim  0 offset 218
  (  37) dim  0 offset 221
  (  38) dim  0 offset 224
  (  39) dim  0 offset 227
  (  40) dim  0 offset 230
  (  41) dim  0 offset 233
  (  42) dim  0 offset 236
  (  43) dim  0 offset 239
  (  44) dim  0 offset 242
  (  45) dim  0 offset 245
  (  46) dim  0 offset 248
  (  47) dim  0 offset 251
  (  48) dim  0 offset 254
  (  49) dim  0 offset 257
  (  50) dim  0 offset 260
  (  51) dim  0 offset 263
  (  52) dim  0 offset 266
  (  53) dim  0 offset 269
  (  54) dim  0 offset 272
  (  55) dim  0 offset 275
  (  56) dim  0 offset 278
  (  57) dim  0 offset 281
  (  58) dim  0 offset 284
  (  59) dim  0 offset 287
  (  60) dim  0 offset 290
  (  61) dim  0 offset 293
  (  62) dim  0 offset 296
  (  63) dim  0 offset 299
  (  64) dim  0 offset 302
  (  65) dim  0 offset 305
  (  66) dim  0 offset 308
  (  67) dim  0 offset 311
  (  68) dim  0 offset 314
  (  69) dim  0 offset 317
  (  70) dim  0 offset 320
  (  71) dim  0 offset 323
  (  72) dim  0 offset 326
  (  73) dim  0 offset 329
  (  74) dim  0 offset 332
  (  75) dim  0 offset 335
  (  76) dim  0 offset 338
  (  77) dim  0 offset 341
  (  78) dim  0 offset 344
  (  79) dim  0 offset 347
  (  80) dim  0 offset 350
  (  81) dim  0 offset 353
  (  82) dim  0 offset 356
  (  83) dim  0 offset 359
  (  84) dim  0 offset 362
  (  85) dim  0 offset 365
  (  86) dim  0 offset 368
  (  87) dim  0 offset 371
  (  88) dim  0 offset 374
  (  89) dim  0 offset 377
  (  90) dim  0 offset 380
  (  91) dim  0 offset 383
  (  92) dim  0 offset 386
  (  93) dim  0 offset 389
  (  94) dim  0 offset 392
  (  95) dim  0 offset 395
  (  96) dim  0 offset 398
  (  97) dim  0 offset 401
  (  98) dim  0 offset 404
  (  99) dim  0 offset 407
  ( 100) dim  0 offset 410
  ( 101) dim  0 offset 413
  ( 102) dim  0 offset 416
  ( 103) dim  0 offset 419
  ( 104) dim  0 offset 422
  ( 105) dim  0 offset 425
  ( 106) dim  0 offset 428
  ( 107) dim  0 offset 431
  ( 108) dim  0 offset 434
  ( 109) dim  0 offset 437
  ( 110) dim  0 offset 440
  ( 111) dim  0 offset 443
  ( 112) dim  0 offset 446
  ( 113) dim  0 offset 449
  ( 114) dim  0 offset 452
  ( 115) dim  0 offset 455
  ( 116) dim  0 offset 458
  ( 117) dim  0 offset 461
  ( 118) dim  0 offset 464
  ( 119) dim  0 offset 467
  ( 120) dim  0 offset 470
  ( 121) dim  0 offset 473
  ( 122) dim  0 offset 476
  ( 123) dim  0 offset 479
  ( 124) dim  0 offset 482
  ( 125) dim  0 offset 485
  ( 126) dim  0 offset 488
  ( 127) dim  0 offset 491
  ( 128) dim  0 offset 494
  ( 129) dim  0 offset 497
  ( 130) dim  0 offset 500
  ( 131) dim  0 offset 503
  ( 132) dim  0 offset 506
  ( 133) dim  0 offset 509
  ( 134) dim  0 offset 512
  ( 135) dim  0 offset 515
  ( 136) dim  0 offset 518
  ( 137) dim  0 offset 521
  ( 138) dim  0 offset 524
  ( 139) dim  0 offset 527
  ( 140) dim  0 offset 530
  ( 141) dim  0 offset 533
  ( 142) dim  0 offset 536
  ( 143) dim  0 offset 539
  ( 144) dim  0 offset 542
  ( 145) dim  0 offset 545
  ( 146) dim  0 offset 548
  ( 147) dim  0 offset 551
  ( 148) dim  0 offset 554
  ( 149) dim  0 offset 557
  ( 150) dim  0 offset 560
  ( 151) dim  0 offset 563
  ( 152) dim  0 offset 566
  ( 153) dim  0 offset 569
  ( 154) dim  0 offset 572
  ( 155) dim  0 offset 575
  ( 156) dim  0 offset 578
  ( 157) dim  0 offset 581
  ( 158) dim  0 offset 584
  ( 159) dim  0 offset 587
  ( 160) dim  0 offset 590
  ( 161) dim  0 offset 593
  ( 162) dim  0 offset 596
  ( 163) dim  0 offset 599
  ( 164) dim  0 offset 602
  ( 165) dim  0 offset 605
  ( 166) dim  0 offset 608
  ( 167) dim  0 offset 611
  ( 168) dim  0 offset 614
Process 1:
  field 2 "Alpha" with 1 components
Process 0:
  (   0) dim  1 offset   5
  (   1) dim  1 offset  11
  (   2) dim  1 offset  17
  (   3) dim  1 offset  23
  (   4) dim  1 offset  29
  (   5) dim  1 offset  35
  (   6) dim  1 offset  41
  (   7) dim  1 offset  47
  (   8) dim  1 offset  53
  (   9) dim  1 offset  59
  (  10) dim  1 offset  65
  (  11) dim  1 offset  71
  (  12) dim  1 offset  77
  (  13) dim  1 offset  83
  (  14) dim  1 offset  89
  (  15) dim  1 offset  95
  (  16) dim  1 offset 101
  (  17) dim  1 offset 107
  (  18) dim  1 offset 113
  (  19) dim  1 offset 119
  (  20) dim  1 offset 125
  (  21) dim  1 offset 131
  (  22) dim  1 offset 137
  (  23) dim  1 offset 143
  (  24) dim  1 offset 149
  (  25) dim  1 offset 155
  (  26) dim  1 offset 161
  (  27) dim  1 offset 167
  (  28) dim  1 offset 173
  (  29) dim  1 offset 179
  (  30) dim  1 offset 185
  (  31) dim  1 offset 191
  (  32) dim  1 offset 197
  (  33) dim  1 offset 203
  (  34) dim  1 offset 209
  (  35) dim  1 offset 215
  (  36) dim  1 offset 218
  (  37) dim  1 offset 221
  (  38) dim  1 offset 224
  (  39) dim  1 offset 227
  (  40) dim  1 offset 230
  (  41) dim  1 offset 233
  (  42) dim  1 offset 236
  (  43) dim  1 offset 239
  (  44) dim  1 offset 242
  (  45) dim  1 offset 245
  (  46) dim  1 offset 248
  (  47) dim  1 offset 251
  (  48) dim  1 offset 254
  (  49) dim  1 offset 257
  (  50) dim  1 offset 260
  (  51) dim  1 offset 263
  (  52) dim  1 offset 266
  (  53) dim  1 offset 269
  (  54) dim  1 offset 272
  (  55) dim  1 offset 275
  (  56) dim  1 offset 278
  (  57) dim  1 offset 281
  (  58) dim  1 offset 284
  (  59) dim  1 offset 287
  (  60) dim  1 offset 290
  (  61) dim  1 offset 293
  (  62) dim  1 offset 296
  (  63) dim  1 offset 299
  (  64) dim  1 offset 302
  (  65) dim  1 offset 305
  (  66) dim  1 offset 308
  (  67) dim  1 offset 311
  (  68) dim  1 offset 314
  (  69) dim  1 offset 317
  (  70) dim  1 offset 320
  (  71) dim  1 offset 323
  (  72) dim  1 offset 326
  (  73) dim  1 offset 329
  (  74) dim  1 offset 332
  (  75) dim  1 offset 335
  (  76) dim  1 offset 338
  (  77) dim  1 offset 341
  (  78) dim  1 offset 344
  (  79) dim  1 offset 347
  (  80) dim  1 offset 350
  (  81) dim  1 offset 353
  (  82) dim  1 offset 356
  (  83) dim  1 offset 359
  (  84) dim  1 offset 362
  (  85) dim  1 offset 365
  (  86) dim  1 offset 368
  (  87) dim  1 offset 371
  (  88) dim  1 offset 374
  (  89) dim  1 offset 377
  (  90) dim  1 offset 380
  (  91) dim  1 offset 383
  (  92) dim  1 offset 386
  (  93) dim  1 offset 389
  (  94) dim  1 offset 392
  (  95) dim  1 offset 395
  (  96) dim  1 offset 398
  (  97) dim  1 offset 401
  (  98) dim  1 offset 404
  (  99) dim  1 offset 407
  ( 100) dim  1 offset 410
  ( 101) dim  1 offset 413
  ( 102) dim  1 offset 416
  ( 103) dim  1 offset 419
  ( 104) dim  1 offset 422
  ( 105) dim  1 offset 425
  ( 106) dim  1 offset 428
  ( 107) dim  1 offset 431
  ( 108) dim  1 offset 434
  ( 109) dim  1 offset 437
  ( 110) dim  1 offset 440
  ( 111) dim  1 offset 443
  ( 112) dim  1 offset 446
  ( 113) dim  1 offset 449
  ( 114) dim  1 offset 452
  ( 115) dim  1 offset 455
  ( 116) dim  1 offset 458
  ( 117) dim  1 offset 461
  ( 118) dim  1 offset 464
  ( 119) dim  1 offset 467
  ( 120) dim  1 offset 470
  ( 121) dim  1 offset 473
  ( 122) dim  1 offset 476
  ( 123) dim  1 offset 479
  ( 124) dim  1 offset 482
  ( 125) dim  1 offset 485
  ( 126) dim  1 offset 488
  ( 127) dim  1 offset 491
  ( 128) dim  1 offset 494
  ( 129) dim  1 offset 497
  ( 130) dim  1 offset 500
  ( 131) dim  1 offset 503
  ( 132) dim  1 offset 506
  ( 133) dim  1 offset 509
  ( 134) dim  1 offset 512
  ( 135) dim  1 offset 515
  ( 136) dim  1 offset 518
  ( 137) dim  1 offset 521
  ( 138) dim  1 offset 524
  ( 139) dim  1 offset 527
  ( 140) dim  1 offset 530
  ( 141) dim  1 offset 533
  ( 142) dim  1 offset 536
  ( 143) dim  1 offset 539
  ( 144) dim  1 offset 542
  ( 145) dim  1 offset 545
  ( 146) dim  1 offset 548
  ( 147) dim  1 offset 551
  ( 148) dim  1 offset 554
  ( 149) dim  1 offset 557
  ( 150) dim  1 offset 560
  ( 151) dim  1 offset 563
  ( 152) dim  1 offset 566
  ( 153) dim  1 offset 569
  ( 154) dim  1 offset 572
  ( 155) dim  1 offset 575
  ( 156) dim  1 offset 578
  ( 157) dim  1 offset 581
  ( 158) dim  1 offset 584
  ( 159) dim  1 offset 587
  ( 160) dim  1 offset 590
  ( 161) dim  1 offset 593
  ( 162) dim  1 offset 596
  ( 163) dim  1 offset 599
  ( 164) dim  1 offset 602
  ( 165) dim  1 offset 605
  ( 166) dim  1 offset 608
  ( 167) dim  1 offset 611
  ( 168) dim  1 offset 614
Process 1:
DM Object: Parallel Mesh 2 MPI processes
  type: plex
Parallel Mesh in 2 dimensions:
  Number of 0-cells per rank: 28 28
  Number of 1-cells per rank: 45 45
  Number of 2-cells per rank: 18 18
Labels:
  depth: 3 strata with value/size (0 (28), 1 (45), 2 (18))
  celltype: 3 strata with value/size (0 (28), 1 (45), 4 (18))
  Cell Sets: 2 strata with value/size (1 (9), 2 (9))
Field U:
  adjacency FEM
Field Sigma:
  adjacency FEM
Field Alpha:
  adjacency FEM
