DM Object: cubit(aise/AeroFS/Development/DMPlex/EXO/FourBrickHex-large.exo): 12/08/2017: 17 2 MPI processes
  type: plex
cubit(aise/AeroFS/Development/DMPlex/EXO/FourBrickHex-large.exo): 12/08/2017: 17 in 3 dimensions:
  Number of 0-cells per rank: 125 0
  Number of 1-cells per rank: 300 0
  Number of 2-cells per rank: 240 0
  Number of 3-cells per rank: 64 0
Labels:
  celltype: 4 strata with value/size (0 (125), 1 (300), 4 (240), 7 (64))
  depth: 4 strata with value/size (0 (125), 1 (300), 2 (240), 3 (64))
  Cell Sets: 4 strata with value/size (1 (16), 2 (16), 5 (16), 20 (16))
PetscViewer Object: 2 MPI processes
  type: exodusii
  Filename:    FourBrickHex-large_out.exo
  exoid:       -1
  IO Mode:     1
  Mesh order:  2
PetscViewer Object: 2 MPI processes
  type: exodusii
  Filename:    FourBrickHex-large_out.exo
  exoid:       65536
  IO Mode:     1
  Mesh order:  2
PetscSection Object: 2 MPI processes
  type not yet set
3 fields
  field 0 "U" with 3 components
Process 0:
  (   0) dim  3 offset   0
  (   1) dim  3 offset  10
  (   2) dim  3 offset  20
  (   3) dim  3 offset  30
  (   4) dim  3 offset  40
  (   5) dim  3 offset  50
  (   6) dim  3 offset  60
  (   7) dim  3 offset  70
  (   8) dim  3 offset  80
  (   9) dim  3 offset  90
  (  10) dim  3 offset 100
  (  11) dim  3 offset 110
  (  12) dim  3 offset 120
  (  13) dim  3 offset 130
  (  14) dim  3 offset 140
  (  15) dim  3 offset 150
  (  16) dim  3 offset 160
  (  17) dim  3 offset 170
  (  18) dim  3 offset 180
  (  19) dim  3 offset 190
  (  20) dim  3 offset 200
  (  21) dim  3 offset 210
  (  22) dim  3 offset 220
  (  23) dim  3 offset 230
  (  24) dim  3 offset 240
  (  25) dim  3 offset 250
  (  26) dim  3 offset 260
  (  27) dim  3 offset 270
  (  28) dim  3 offset 280
  (  29) dim  3 offset 290
  (  30) dim  3 offset 300
  (  31) dim  3 offset 310
  (  32) dim  3 offset 320
  (  33) dim  3 offset 330
  (  34) dim  3 offset 340
  (  35) dim  3 offset 350
  (  36) dim  3 offset 360
  (  37) dim  3 offset 370
  (  38) dim  3 offset 380
  (  39) dim  3 offset 390
  (  40) dim  3 offset 400
  (  41) dim  3 offset 410
  (  42) dim  3 offset 420
  (  43) dim  3 offset 430
  (  44) dim  3 offset 440
  (  45) dim  3 offset 450
  (  46) dim  3 offset 460
  (  47) dim  3 offset 470
  (  48) dim  3 offset 480
  (  49) dim  3 offset 490
  (  50) dim  3 offset 500
  (  51) dim  3 offset 510
  (  52) dim  3 offset 520
  (  53) dim  3 offset 530
  (  54) dim  3 offset 540
  (  55) dim  3 offset 550
  (  56) dim  3 offset 560
  (  57) dim  3 offset 570
  (  58) dim  3 offset 580
  (  59) dim  3 offset 590
  (  60) dim  3 offset 600
  (  61) dim  3 offset 610
  (  62) dim  3 offset 620
  (  63) dim  3 offset 630
  (  64) dim  3 offset 640
  (  65) dim  3 offset 644
  (  66) dim  3 offset 648
  (  67) dim  3 offset 652
  (  68) dim  3 offset 656
  (  69) dim  3 offset 660
  (  70) dim  3 offset 664
  (  71) dim  3 offset 668
  (  72) dim  3 offset 672
  (  73) dim  3 offset 676
  (  74) dim  3 offset 680
  (  75) dim  3 offset 684
  (  76) dim  3 offset 688
  (  77) dim  3 offset 692
  (  78) dim  3 offset 696
  (  79) dim  3 offset 700
  (  80) dim  3 offset 704
  (  81) dim  3 offset 708
  (  82) dim  3 offset 712
  (  83) dim  3 offset 716
  (  84) dim  3 offset 720
  (  85) dim  3 offset 724
  (  86) dim  3 offset 728
  (  87) dim  3 offset 732
  (  88) dim  3 offset 736
  (  89) dim  3 offset 740
  (  90) dim  3 offset 744
  (  91) dim  3 offset 748
  (  92) dim  3 offset 752
  (  93) dim  3 offset 756
  (  94) dim  3 offset 760
  (  95) dim  3 offset 764
  (  96) dim  3 offset 768
  (  97) dim  3 offset 772
  (  98) dim  3 offset 776
  (  99) dim  3 offset 780
  ( 100) dim  3 offset 784
  ( 101) dim  3 offset 788
  ( 102) dim  3 offset 792
  ( 103) dim  3 offset 796
  ( 104) dim  3 offset 800
  ( 105) dim  3 offset 804
  ( 106) dim  3 offset 808
  ( 107) dim  3 offset 812
  ( 108) dim  3 offset 816
  ( 109) dim  3 offset 820
  ( 110) dim  3 offset 824
  ( 111) dim  3 offset 828
  ( 112) dim  3 offset 832
  ( 113) dim  3 offset 836
  ( 114) dim  3 offset 840
  ( 115) dim  3 offset 844
  ( 116) dim  3 offset 848
  ( 117) dim  3 offset 852
  ( 118) dim  3 offset 856
  ( 119) dim  3 offset 860
  ( 120) dim  3 offset 864
  ( 121) dim  3 offset 868
  ( 122) dim  3 offset 872
  ( 123) dim  3 offset 876
  ( 124) dim  3 offset 880
  ( 125) dim  3 offset 884
  ( 126) dim  3 offset 888
  ( 127) dim  3 offset 892
  ( 128) dim  3 offset 896
  ( 129) dim  3 offset 900
  ( 130) dim  3 offset 904
  ( 131) dim  3 offset 908
  ( 132) dim  3 offset 912
  ( 133) dim  3 offset 916
  ( 134) dim  3 offset 920
  ( 135) dim  3 offset 924
  ( 136) dim  3 offset 928
  ( 137) dim  3 offset 932
  ( 138) dim  3 offset 936
  ( 139) dim  3 offset 940
  ( 140) dim  3 offset 944
  ( 141) dim  3 offset 948
  ( 142) dim  3 offset 952
  ( 143) dim  3 offset 956
  ( 144) dim  3 offset 960
  ( 145) dim  3 offset 964
  ( 146) dim  3 offset 968
  ( 147) dim  3 offset 972
  ( 148) dim  3 offset 976
  ( 149) dim  3 offset 980
  ( 150) dim  3 offset 984
  ( 151) dim  3 offset 988
  ( 152) dim  3 offset 992
  ( 153) dim  3 offset 996
  ( 154) dim  3 offset 1000
  ( 155) dim  3 offset 1004
  ( 156) dim  3 offset 1008
  ( 157) dim  3 offset 1012
  ( 158) dim  3 offset 1016
  ( 159) dim  3 offset 1020
  ( 160) dim  3 offset 1024
  ( 161) dim  3 offset 1028
  ( 162) dim  3 offset 1032
  ( 163) dim  3 offset 1036
  ( 164) dim  3 offset 1040
  ( 165) dim  3 offset 1044
  ( 166) dim  3 offset 1048
  ( 167) dim  3 offset 1052
  ( 168) dim  3 offset 1056
  ( 169) dim  3 offset 1060
  ( 170) dim  3 offset 1064
  ( 171) dim  3 offset 1068
  ( 172) dim  3 offset 1072
  ( 173) dim  3 offset 1076
  ( 174) dim  3 offset 1080
  ( 175) dim  3 offset 1084
  ( 176) dim  3 offset 1088
  ( 177) dim  3 offset 1092
  ( 178) dim  3 offset 1096
  ( 179) dim  3 offset 1100
  ( 180) dim  3 offset 1104
  ( 181) dim  3 offset 1108
  ( 182) dim  3 offset 1112
  ( 183) dim  3 offset 1116
  ( 184) dim  3 offset 1120
  ( 185) dim  3 offset 1124
  ( 186) dim  3 offset 1128
  ( 187) dim  3 offset 1132
  ( 188) dim  3 offset 1136
  ( 189) dim  3 offset 1140
  ( 190) dim  3 offset 1144
  ( 191) dim  3 offset 1148
  ( 192) dim  3 offset 1152
  ( 193) dim  3 offset 1156
  ( 194) dim  3 offset 1160
  ( 195) dim  3 offset 1164
  ( 196) dim  3 offset 1168
  ( 197) dim  3 offset 1172
  ( 198) dim  3 offset 1176
  ( 199) dim  3 offset 1180
  ( 200) dim  3 offset 1184
  ( 201) dim  3 offset 1188
  ( 202) dim  3 offset 1192
  ( 203) dim  3 offset 1196
  ( 204) dim  3 offset 1200
  ( 205) dim  3 offset 1204
  ( 206) dim  3 offset 1208
  ( 207) dim  3 offset 1212
  ( 208) dim  3 offset 1216
  ( 209) dim  3 offset 1220
  ( 210) dim  3 offset 1224
  ( 211) dim  3 offset 1228
  ( 212) dim  3 offset 1232
  ( 213) dim  3 offset 1236
  ( 214) dim  3 offset 1240
  ( 215) dim  3 offset 1244
  ( 216) dim  3 offset 1248
  ( 217) dim  3 offset 1252
  ( 218) dim  3 offset 1256
  ( 219) dim  3 offset 1260
  ( 220) dim  3 offset 1264
  ( 221) dim  3 offset 1268
  ( 222) dim  3 offset 1272
  ( 223) dim  3 offset 1276
  ( 224) dim  3 offset 1280
  ( 225) dim  3 offset 1284
  ( 226) dim  3 offset 1288
  ( 227) dim  3 offset 1292
  ( 228) dim  3 offset 1296
  ( 229) dim  3 offset 1300
  ( 230) dim  3 offset 1304
  ( 231) dim  3 offset 1308
  ( 232) dim  3 offset 1312
  ( 233) dim  3 offset 1316
  ( 234) dim  3 offset 1320
  ( 235) dim  3 offset 1324
  ( 236) dim  3 offset 1328
  ( 237) dim  3 offset 1332
  ( 238) dim  3 offset 1336
  ( 239) dim  3 offset 1340
  ( 240) dim  3 offset 1344
  ( 241) dim  3 offset 1348
  ( 242) dim  3 offset 1352
  ( 243) dim  3 offset 1356
  ( 244) dim  3 offset 1360
  ( 245) dim  3 offset 1364
  ( 246) dim  3 offset 1368
  ( 247) dim  3 offset 1372
  ( 248) dim  3 offset 1376
  ( 249) dim  3 offset 1380
  ( 250) dim  3 offset 1384
  ( 251) dim  3 offset 1388
  ( 252) dim  3 offset 1392
  ( 253) dim  3 offset 1396
  ( 254) dim  3 offset 1400
  ( 255) dim  3 offset 1404
  ( 256) dim  3 offset 1408
  ( 257) dim  3 offset 1412
  ( 258) dim  3 offset 1416
  ( 259) dim  3 offset 1420
  ( 260) dim  3 offset 1424
  ( 261) dim  3 offset 1428
  ( 262) dim  3 offset 1432
  ( 263) dim  3 offset 1436
  ( 264) dim  3 offset 1440
  ( 265) dim  3 offset 1444
  ( 266) dim  3 offset 1448
  ( 267) dim  3 offset 1452
  ( 268) dim  3 offset 1456
  ( 269) dim  3 offset 1460
  ( 270) dim  3 offset 1464
  ( 271) dim  3 offset 1468
  ( 272) dim  3 offset 1472
  ( 273) dim  3 offset 1476
  ( 274) dim  3 offset 1480
  ( 275) dim  3 offset 1484
  ( 276) dim  3 offset 1488
  ( 277) dim  3 offset 1492
  ( 278) dim  3 offset 1496
  ( 279) dim  3 offset 1500
  ( 280) dim  3 offset 1504
  ( 281) dim  3 offset 1508
  ( 282) dim  3 offset 1512
  ( 283) dim  3 offset 1516
  ( 284) dim  3 offset 1520
  ( 285) dim  3 offset 1524
  ( 286) dim  3 offset 1528
  ( 287) dim  3 offset 1532
  ( 288) dim  3 offset 1536
  ( 289) dim  3 offset 1540
  ( 290) dim  3 offset 1544
  ( 291) dim  3 offset 1548
  ( 292) dim  3 offset 1552
  ( 293) dim  3 offset 1556
  ( 294) dim  3 offset 1560
  ( 295) dim  3 offset 1564
  ( 296) dim  3 offset 1568
  ( 297) dim  3 offset 1572
  ( 298) dim  3 offset 1576
  ( 299) dim  3 offset 1580
  ( 300) dim  3 offset 1584
  ( 301) dim  3 offset 1588
  ( 302) dim  3 offset 1592
  ( 303) dim  3 offset 1596
  ( 304) dim  3 offset 1600
  ( 305) dim  3 offset 1604
  ( 306) dim  3 offset 1608
  ( 307) dim  3 offset 1612
  ( 308) dim  3 offset 1616
  ( 309) dim  3 offset 1620
  ( 310) dim  3 offset 1624
  ( 311) dim  3 offset 1628
  ( 312) dim  3 offset 1632
  ( 313) dim  3 offset 1636
  ( 314) dim  3 offset 1640
  ( 315) dim  3 offset 1644
  ( 316) dim  3 offset 1648
  ( 317) dim  3 offset 1652
  ( 318) dim  3 offset 1656
  ( 319) dim  3 offset 1660
  ( 320) dim  3 offset 1664
  ( 321) dim  3 offset 1668
  ( 322) dim  3 offset 1672
  ( 323) dim  3 offset 1676
  ( 324) dim  3 offset 1680
  ( 325) dim  3 offset 1684
  ( 326) dim  3 offset 1688
  ( 327) dim  3 offset 1692
  ( 328) dim  3 offset 1696
  ( 329) dim  3 offset 1700
  ( 330) dim  3 offset 1704
  ( 331) dim  3 offset 1708
  ( 332) dim  3 offset 1712
  ( 333) dim  3 offset 1716
  ( 334) dim  3 offset 1720
  ( 335) dim  3 offset 1724
  ( 336) dim  3 offset 1728
  ( 337) dim  3 offset 1732
  ( 338) dim  3 offset 1736
  ( 339) dim  3 offset 1740
  ( 340) dim  3 offset 1744
  ( 341) dim  3 offset 1748
  ( 342) dim  3 offset 1752
  ( 343) dim  3 offset 1756
  ( 344) dim  3 offset 1760
  ( 345) dim  3 offset 1764
  ( 346) dim  3 offset 1768
  ( 347) dim  3 offset 1772
  ( 348) dim  3 offset 1776
  ( 349) dim  3 offset 1780
  ( 350) dim  3 offset 1784
  ( 351) dim  3 offset 1788
  ( 352) dim  3 offset 1792
  ( 353) dim  3 offset 1796
  ( 354) dim  3 offset 1800
  ( 355) dim  3 offset 1804
  ( 356) dim  3 offset 1808
  ( 357) dim  3 offset 1812
  ( 358) dim  3 offset 1816
  ( 359) dim  3 offset 1820
  ( 360) dim  3 offset 1824
  ( 361) dim  3 offset 1828
  ( 362) dim  3 offset 1832
  ( 363) dim  3 offset 1836
  ( 364) dim  3 offset 1840
  ( 365) dim  3 offset 1844
  ( 366) dim  3 offset 1848
  ( 367) dim  3 offset 1852
  ( 368) dim  3 offset 1856
  ( 369) dim  3 offset 1860
  ( 370) dim  3 offset 1864
  ( 371) dim  3 offset 1868
  ( 372) dim  3 offset 1872
  ( 373) dim  3 offset 1876
  ( 374) dim  3 offset 1880
  ( 375) dim  3 offset 1884
  ( 376) dim  3 offset 1888
  ( 377) dim  3 offset 1892
  ( 378) dim  3 offset 1896
  ( 379) dim  3 offset 1900
  ( 380) dim  3 offset 1904
  ( 381) dim  3 offset 1908
  ( 382) dim  3 offset 1912
  ( 383) dim  3 offset 1916
  ( 384) dim  3 offset 1920
  ( 385) dim  3 offset 1924
  ( 386) dim  3 offset 1928
  ( 387) dim  3 offset 1932
  ( 388) dim  3 offset 1936
  ( 389) dim  3 offset 1940
  ( 390) dim  3 offset 1944
  ( 391) dim  3 offset 1948
  ( 392) dim  3 offset 1952
  ( 393) dim  3 offset 1956
  ( 394) dim  3 offset 1960
  ( 395) dim  3 offset 1964
  ( 396) dim  3 offset 1968
  ( 397) dim  3 offset 1972
  ( 398) dim  3 offset 1976
  ( 399) dim  3 offset 1980
  ( 400) dim  3 offset 1984
  ( 401) dim  3 offset 1988
  ( 402) dim  3 offset 1992
  ( 403) dim  3 offset 1996
  ( 404) dim  3 offset 2000
  ( 405) dim  3 offset 2004
  ( 406) dim  3 offset 2008
  ( 407) dim  3 offset 2012
  ( 408) dim  3 offset 2016
  ( 409) dim  3 offset 2020
  ( 410) dim  3 offset 2024
  ( 411) dim  3 offset 2028
  ( 412) dim  3 offset 2032
  ( 413) dim  3 offset 2036
  ( 414) dim  3 offset 2040
  ( 415) dim  3 offset 2044
  ( 416) dim  3 offset 2048
  ( 417) dim  3 offset 2052
  ( 418) dim  3 offset 2056
  ( 419) dim  3 offset 2060
  ( 420) dim  3 offset 2064
  ( 421) dim  3 offset 2068
  ( 422) dim  3 offset 2072
  ( 423) dim  3 offset 2076
  ( 424) dim  3 offset 2080
  ( 425) dim  3 offset 2084
  ( 426) dim  3 offset 2088
  ( 427) dim  3 offset 2092
  ( 428) dim  3 offset 2096
  ( 429) dim  3 offset 2100
  ( 430) dim  3 offset 2104
  ( 431) dim  3 offset 2108
  ( 432) dim  3 offset 2112
  ( 433) dim  3 offset 2116
  ( 434) dim  3 offset 2120
  ( 435) dim  3 offset 2124
  ( 436) dim  3 offset 2128
  ( 437) dim  3 offset 2132
  ( 438) dim  3 offset 2136
  ( 439) dim  3 offset 2140
  ( 440) dim  3 offset 2144
  ( 441) dim  3 offset 2148
  ( 442) dim  3 offset 2152
  ( 443) dim  3 offset 2156
  ( 444) dim  3 offset 2160
  ( 445) dim  3 offset 2164
  ( 446) dim  3 offset 2168
  ( 447) dim  3 offset 2172
  ( 448) dim  3 offset 2176
  ( 449) dim  3 offset 2180
  ( 450) dim  3 offset 2184
  ( 451) dim  3 offset 2188
  ( 452) dim  3 offset 2192
  ( 453) dim  3 offset 2196
  ( 454) dim  3 offset 2200
  ( 455) dim  3 offset 2204
  ( 456) dim  3 offset 2208
  ( 457) dim  3 offset 2212
  ( 458) dim  3 offset 2216
  ( 459) dim  3 offset 2220
  ( 460) dim  3 offset 2224
  ( 461) dim  3 offset 2228
  ( 462) dim  3 offset 2232
  ( 463) dim  3 offset 2236
  ( 464) dim  3 offset 2240
  ( 465) dim  3 offset 2244
  ( 466) dim  3 offset 2248
  ( 467) dim  3 offset 2252
  ( 468) dim  3 offset 2256
  ( 469) dim  3 offset 2260
  ( 470) dim  3 offset 2264
  ( 471) dim  3 offset 2268
  ( 472) dim  3 offset 2272
  ( 473) dim  3 offset 2276
  ( 474) dim  3 offset 2280
  ( 475) dim  3 offset 2284
  ( 476) dim  3 offset 2288
  ( 477) dim  3 offset 2292
  ( 478) dim  3 offset 2296
  ( 479) dim  3 offset 2300
  ( 480) dim  3 offset 2304
  ( 481) dim  3 offset 2308
  ( 482) dim  3 offset 2312
  ( 483) dim  3 offset 2316
  ( 484) dim  3 offset 2320
  ( 485) dim  3 offset 2324
  ( 486) dim  3 offset 2328
  ( 487) dim  3 offset 2332
  ( 488) dim  3 offset 2336
  ( 489) dim  3 offset 2340
  ( 490) dim  3 offset 2344
  ( 491) dim  3 offset 2348
  ( 492) dim  3 offset 2352
  ( 493) dim  3 offset 2356
  ( 494) dim  3 offset 2360
  ( 495) dim  3 offset 2364
  ( 496) dim  3 offset 2368
  ( 497) dim  3 offset 2372
  ( 498) dim  3 offset 2376
  ( 499) dim  3 offset 2380
  ( 500) dim  3 offset 2384
  ( 501) dim  3 offset 2388
  ( 502) dim  3 offset 2392
  ( 503) dim  3 offset 2396
  ( 504) dim  3 offset 2400
  ( 505) dim  3 offset 2404
  ( 506) dim  3 offset 2408
  ( 507) dim  3 offset 2412
  ( 508) dim  3 offset 2416
  ( 509) dim  3 offset 2420
  ( 510) dim  3 offset 2424
  ( 511) dim  3 offset 2428
  ( 512) dim  3 offset 2432
  ( 513) dim  3 offset 2436
  ( 514) dim  3 offset 2440
  ( 515) dim  3 offset 2444
  ( 516) dim  3 offset 2448
  ( 517) dim  3 offset 2452
  ( 518) dim  3 offset 2456
  ( 519) dim  3 offset 2460
  ( 520) dim  3 offset 2464
  ( 521) dim  3 offset 2468
  ( 522) dim  3 offset 2472
  ( 523) dim  3 offset 2476
  ( 524) dim  3 offset 2480
  ( 525) dim  3 offset 2484
  ( 526) dim  3 offset 2488
  ( 527) dim  3 offset 2492
  ( 528) dim  3 offset 2496
  ( 529) dim  3 offset 2500
  ( 530) dim  3 offset 2504
  ( 531) dim  3 offset 2508
  ( 532) dim  3 offset 2512
  ( 533) dim  3 offset 2516
  ( 534) dim  3 offset 2520
  ( 535) dim  3 offset 2524
  ( 536) dim  3 offset 2528
  ( 537) dim  3 offset 2532
  ( 538) dim  3 offset 2536
  ( 539) dim  3 offset 2540
  ( 540) dim  3 offset 2544
  ( 541) dim  3 offset 2548
  ( 542) dim  3 offset 2552
  ( 543) dim  3 offset 2556
  ( 544) dim  3 offset 2560
  ( 545) dim  3 offset 2564
  ( 546) dim  3 offset 2568
  ( 547) dim  3 offset 2572
  ( 548) dim  3 offset 2576
  ( 549) dim  3 offset 2580
  ( 550) dim  3 offset 2584
  ( 551) dim  3 offset 2588
  ( 552) dim  3 offset 2592
  ( 553) dim  3 offset 2596
  ( 554) dim  3 offset 2600
  ( 555) dim  3 offset 2604
  ( 556) dim  3 offset 2608
  ( 557) dim  3 offset 2612
  ( 558) dim  3 offset 2616
  ( 559) dim  3 offset 2620
  ( 560) dim  3 offset 2624
  ( 561) dim  3 offset 2628
  ( 562) dim  3 offset 2632
  ( 563) dim  3 offset 2636
  ( 564) dim  3 offset 2640
  ( 565) dim  3 offset 2644
  ( 566) dim  3 offset 2648
  ( 567) dim  3 offset 2652
  ( 568) dim  3 offset 2656
  ( 569) dim  3 offset 2660
  ( 570) dim  3 offset 2664
  ( 571) dim  3 offset 2668
  ( 572) dim  3 offset 2672
  ( 573) dim  3 offset 2676
  ( 574) dim  3 offset 2680
  ( 575) dim  3 offset 2684
  ( 576) dim  3 offset 2688
  ( 577) dim  3 offset 2692
  ( 578) dim  3 offset 2696
  ( 579) dim  3 offset 2700
  ( 580) dim  3 offset 2704
  ( 581) dim  3 offset 2708
  ( 582) dim  3 offset 2712
  ( 583) dim  3 offset 2716
  ( 584) dim  3 offset 2720
  ( 585) dim  3 offset 2724
  ( 586) dim  3 offset 2728
  ( 587) dim  3 offset 2732
  ( 588) dim  3 offset 2736
  ( 589) dim  3 offset 2740
  ( 590) dim  3 offset 2744
  ( 591) dim  3 offset 2748
  ( 592) dim  3 offset 2752
  ( 593) dim  3 offset 2756
  ( 594) dim  3 offset 2760
  ( 595) dim  3 offset 2764
  ( 596) dim  3 offset 2768
  ( 597) dim  3 offset 2772
  ( 598) dim  3 offset 2776
  ( 599) dim  3 offset 2780
  ( 600) dim  3 offset 2784
  ( 601) dim  3 offset 2788
  ( 602) dim  3 offset 2792
  ( 603) dim  3 offset 2796
  ( 604) dim  3 offset 2800
  ( 605) dim  3 offset 2804
  ( 606) dim  3 offset 2808
  ( 607) dim  3 offset 2812
  ( 608) dim  3 offset 2816
  ( 609) dim  3 offset 2820
  ( 610) dim  3 offset 2824
  ( 611) dim  3 offset 2828
  ( 612) dim  3 offset 2832
  ( 613) dim  3 offset 2836
  ( 614) dim  3 offset 2840
  ( 615) dim  3 offset 2844
  ( 616) dim  3 offset 2848
  ( 617) dim  3 offset 2852
  ( 618) dim  3 offset 2856
  ( 619) dim  3 offset 2860
  ( 620) dim  3 offset 2864
  ( 621) dim  3 offset 2868
  ( 622) dim  3 offset 2872
  ( 623) dim  3 offset 2876
  ( 624) dim  3 offset 2880
  ( 625) dim  3 offset 2884
  ( 626) dim  3 offset 2888
  ( 627) dim  3 offset 2892
  ( 628) dim  3 offset 2896
  ( 629) dim  3 offset 2900
  ( 630) dim  3 offset 2904
  ( 631) dim  3 offset 2908
  ( 632) dim  3 offset 2912
  ( 633) dim  3 offset 2916
  ( 634) dim  3 offset 2920
  ( 635) dim  3 offset 2924
  ( 636) dim  3 offset 2928
  ( 637) dim  3 offset 2932
  ( 638) dim  3 offset 2936
  ( 639) dim  3 offset 2940
  ( 640) dim  3 offset 2944
  ( 641) dim  3 offset 2948
  ( 642) dim  3 offset 2952
  ( 643) dim  3 offset 2956
  ( 644) dim  3 offset 2960
  ( 645) dim  3 offset 2964
  ( 646) dim  3 offset 2968
  ( 647) dim  3 offset 2972
  ( 648) dim  3 offset 2976
  ( 649) dim  3 offset 2980
  ( 650) dim  3 offset 2984
  ( 651) dim  3 offset 2988
  ( 652) dim  3 offset 2992
  ( 653) dim  3 offset 2996
  ( 654) dim  3 offset 3000
  ( 655) dim  3 offset 3004
  ( 656) dim  3 offset 3008
  ( 657) dim  3 offset 3012
  ( 658) dim  3 offset 3016
  ( 659) dim  3 offset 3020
  ( 660) dim  3 offset 3024
  ( 661) dim  3 offset 3028
  ( 662) dim  3 offset 3032
  ( 663) dim  3 offset 3036
  ( 664) dim  3 offset 3040
  ( 665) dim  3 offset 3044
  ( 666) dim  3 offset 3048
  ( 667) dim  3 offset 3052
  ( 668) dim  3 offset 3056
  ( 669) dim  3 offset 3060
  ( 670) dim  3 offset 3064
  ( 671) dim  3 offset 3068
  ( 672) dim  3 offset 3072
  ( 673) dim  3 offset 3076
  ( 674) dim  3 offset 3080
  ( 675) dim  3 offset 3084
  ( 676) dim  3 offset 3088
  ( 677) dim  3 offset 3092
  ( 678) dim  3 offset 3096
  ( 679) dim  3 offset 3100
  ( 680) dim  3 offset 3104
  ( 681) dim  3 offset 3108
  ( 682) dim  3 offset 3112
  ( 683) dim  3 offset 3116
  ( 684) dim  3 offset 3120
  ( 685) dim  3 offset 3124
  ( 686) dim  3 offset 3128
  ( 687) dim  3 offset 3132
  ( 688) dim  3 offset 3136
  ( 689) dim  3 offset 3140
  ( 690) dim  3 offset 3144
  ( 691) dim  3 offset 3148
  ( 692) dim  3 offset 3152
  ( 693) dim  3 offset 3156
  ( 694) dim  3 offset 3160
  ( 695) dim  3 offset 3164
  ( 696) dim  3 offset 3168
  ( 697) dim  3 offset 3172
  ( 698) dim  3 offset 3176
  ( 699) dim  3 offset 3180
  ( 700) dim  3 offset 3184
  ( 701) dim  3 offset 3188
  ( 702) dim  3 offset 3192
  ( 703) dim  3 offset 3196
  ( 704) dim  3 offset 3200
  ( 705) dim  3 offset 3204
  ( 706) dim  3 offset 3208
  ( 707) dim  3 offset 3212
  ( 708) dim  3 offset 3216
  ( 709) dim  3 offset 3220
  ( 710) dim  3 offset 3224
  ( 711) dim  3 offset 3228
  ( 712) dim  3 offset 3232
  ( 713) dim  3 offset 3236
  ( 714) dim  3 offset 3240
  ( 715) dim  3 offset 3244
  ( 716) dim  3 offset 3248
  ( 717) dim  3 offset 3252
  ( 718) dim  3 offset 3256
  ( 719) dim  3 offset 3260
  ( 720) dim  3 offset 3264
  ( 721) dim  3 offset 3268
  ( 722) dim  3 offset 3272
  ( 723) dim  3 offset 3276
  ( 724) dim  3 offset 3280
  ( 725) dim  3 offset 3284
  ( 726) dim  3 offset 3288
  ( 727) dim  3 offset 3292
  ( 728) dim  3 offset 3296
Process 1:
  field 1 "Sigma" with 6 components
Process 0:
  (   0) dim  6 offset   3
  (   1) dim  6 offset  13
  (   2) dim  6 offset  23
  (   3) dim  6 offset  33
  (   4) dim  6 offset  43
  (   5) dim  6 offset  53
  (   6) dim  6 offset  63
  (   7) dim  6 offset  73
  (   8) dim  6 offset  83
  (   9) dim  6 offset  93
  (  10) dim  6 offset 103
  (  11) dim  6 offset 113
  (  12) dim  6 offset 123
  (  13) dim  6 offset 133
  (  14) dim  6 offset 143
  (  15) dim  6 offset 153
  (  16) dim  6 offset 163
  (  17) dim  6 offset 173
  (  18) dim  6 offset 183
  (  19) dim  6 offset 193
  (  20) dim  6 offset 203
  (  21) dim  6 offset 213
  (  22) dim  6 offset 223
  (  23) dim  6 offset 233
  (  24) dim  6 offset 243
  (  25) dim  6 offset 253
  (  26) dim  6 offset 263
  (  27) dim  6 offset 273
  (  28) dim  6 offset 283
  (  29) dim  6 offset 293
  (  30) dim  6 offset 303
  (  31) dim  6 offset 313
  (  32) dim  6 offset 323
  (  33) dim  6 offset 333
  (  34) dim  6 offset 343
  (  35) dim  6 offset 353
  (  36) dim  6 offset 363
  (  37) dim  6 offset 373
  (  38) dim  6 offset 383
  (  39) dim  6 offset 393
  (  40) dim  6 offset 403
  (  41) dim  6 offset 413
  (  42) dim  6 offset 423
  (  43) dim  6 offset 433
  (  44) dim  6 offset 443
  (  45) dim  6 offset 453
  (  46) dim  6 offset 463
  (  47) dim  6 offset 473
  (  48) dim  6 offset 483
  (  49) dim  6 offset 493
  (  50) dim  6 offset 503
  (  51) dim  6 offset 513
  (  52) dim  6 offset 523
  (  53) dim  6 offset 533
  (  54) dim  6 offset 543
  (  55) dim  6 offset 553
  (  56) dim  6 offset 563
  (  57) dim  6 offset 573
  (  58) dim  6 offset 583
  (  59) dim  6 offset 593
  (  60) dim  6 offset 603
  (  61) dim  6 offset 613
  (  62) dim  6 offset 623
  (  63) dim  6 offset 633
  (  64) dim  0 offset 643
  (  65) dim  0 offset 647
  (  66) dim  0 offset 651
  (  67) dim  0 offset 655
  (  68) dim  0 offset 659
  (  69) dim  0 offset 663
  (  70) dim  0 offset 667
  (  71) dim  0 offset 671
  (  72) dim  0 offset 675
  (  73) dim  0 offset 679
  (  74) dim  0 offset 683
  (  75) dim  0 offset 687
  (  76) dim  0 offset 691
  (  77) dim  0 offset 695
  (  78) dim  0 offset 699
  (  79) dim  0 offset 703
  (  80) dim  0 offset 707
  (  81) dim  0 offset 711
  (  82) dim  0 offset 715
  (  83) dim  0 offset 719
  (  84) dim  0 offset 723
  (  85) dim  0 offset 727
  (  86) dim  0 offset 731
  (  87) dim  0 offset 735
  (  88) dim  0 offset 739
  (  89) dim  0 offset 743
  (  90) dim  0 offset 747
  (  91) dim  0 offset 751
  (  92) dim  0 offset 755
  (  93) dim  0 offset 759
  (  94) dim  0 offset 763
  (  95) dim  0 offset 767
  (  96) dim  0 offset 771
  (  97) dim  0 offset 775
  (  98) dim  0 offset 779
  (  99) dim  0 offset 783
  ( 100) dim  0 offset 787
  ( 101) dim  0 offset 791
  ( 102) dim  0 offset 795
  ( 103) dim  0 offset 799
  ( 104) dim  0 offset 803
  ( 105) dim  0 offset 807
  ( 106) dim  0 offset 811
  ( 107) dim  0 offset 815
  ( 108) dim  0 offset 819
  ( 109) dim  0 offset 823
  ( 110) dim  0 offset 827
  ( 111) dim  0 offset 831
  ( 112) dim  0 offset 835
  ( 113) dim  0 offset 839
  ( 114) dim  0 offset 843
  ( 115) dim  0 offset 847
  ( 116) dim  0 offset 851
  ( 117) dim  0 offset 855
  ( 118) dim  0 offset 859
  ( 119) dim  0 offset 863
  ( 120) dim  0 offset 867
  ( 121) dim  0 offset 871
  ( 122) dim  0 offset 875
  ( 123) dim  0 offset 879
  ( 124) dim  0 offset 883
  ( 125) dim  0 offset 887
  ( 126) dim  0 offset 891
  ( 127) dim  0 offset 895
  ( 128) dim  0 offset 899
  ( 129) dim  0 offset 903
  ( 130) dim  0 offset 907
  ( 131) dim  0 offset 911
  ( 132) dim  0 offset 915
  ( 133) dim  0 offset 919
  ( 134) dim  0 offset 923
  ( 135) dim  0 offset 927
  ( 136) dim  0 offset 931
  ( 137) dim  0 offset 935
  ( 138) dim  0 offset 939
  ( 139) dim  0 offset 943
  ( 140) dim  0 offset 947
  ( 141) dim  0 offset 951
  ( 142) dim  0 offset 955
  ( 143) dim  0 offset 959
  ( 144) dim  0 offset 963
  ( 145) dim  0 offset 967
  ( 146) dim  0 offset 971
  ( 147) dim  0 offset 975
  ( 148) dim  0 offset 979
  ( 149) dim  0 offset 983
  ( 150) dim  0 offset 987
  ( 151) dim  0 offset 991
  ( 152) dim  0 offset 995
  ( 153) dim  0 offset 999
  ( 154) dim  0 offset 1003
  ( 155) dim  0 offset 1007
  ( 156) dim  0 offset 1011
  ( 157) dim  0 offset 1015
  ( 158) dim  0 offset 1019
  ( 159) dim  0 offset 1023
  ( 160) dim  0 offset 1027
  ( 161) dim  0 offset 1031
  ( 162) dim  0 offset 1035
  ( 163) dim  0 offset 1039
  ( 164) dim  0 offset 1043
  ( 165) dim  0 offset 1047
  ( 166) dim  0 offset 1051
  ( 167) dim  0 offset 1055
  ( 168) dim  0 offset 1059
  ( 169) dim  0 offset 1063
  ( 170) dim  0 offset 1067
  ( 171) dim  0 offset 1071
  ( 172) dim  0 offset 1075
  ( 173) dim  0 offset 1079
  ( 174) dim  0 offset 1083
  ( 175) dim  0 offset 1087
  ( 176) dim  0 offset 1091
  ( 177) dim  0 offset 1095
  ( 178) dim  0 offset 1099
  ( 179) dim  0 offset 1103
  ( 180) dim  0 offset 1107
  ( 181) dim  0 offset 1111
  ( 182) dim  0 offset 1115
  ( 183) dim  0 offset 1119
  ( 184) dim  0 offset 1123
  ( 185) dim  0 offset 1127
  ( 186) dim  0 offset 1131
  ( 187) dim  0 offset 1135
  ( 188) dim  0 offset 1139
  ( 189) dim  0 offset 1143
  ( 190) dim  0 offset 1147
  ( 191) dim  0 offset 1151
  ( 192) dim  0 offset 1155
  ( 193) dim  0 offset 1159
  ( 194) dim  0 offset 1163
  ( 195) dim  0 offset 1167
  ( 196) dim  0 offset 1171
  ( 197) dim  0 offset 1175
  ( 198) dim  0 offset 1179
  ( 199) dim  0 offset 1183
  ( 200) dim  0 offset 1187
  ( 201) dim  0 offset 1191
  ( 202) dim  0 offset 1195
  ( 203) dim  0 offset 1199
  ( 204) dim  0 offset 1203
  ( 205) dim  0 offset 1207
  ( 206) dim  0 offset 1211
  ( 207) dim  0 offset 1215
  ( 208) dim  0 offset 1219
  ( 209) dim  0 offset 1223
  ( 210) dim  0 offset 1227
  ( 211) dim  0 offset 1231
  ( 212) dim  0 offset 1235
  ( 213) dim  0 offset 1239
  ( 214) dim  0 offset 1243
  ( 215) dim  0 offset 1247
  ( 216) dim  0 offset 1251
  ( 217) dim  0 offset 1255
  ( 218) dim  0 offset 1259
  ( 219) dim  0 offset 1263
  ( 220) dim  0 offset 1267
  ( 221) dim  0 offset 1271
  ( 222) dim  0 offset 1275
  ( 223) dim  0 offset 1279
  ( 224) dim  0 offset 1283
  ( 225) dim  0 offset 1287
  ( 226) dim  0 offset 1291
  ( 227) dim  0 offset 1295
  ( 228) dim  0 offset 1299
  ( 229) dim  0 offset 1303
  ( 230) dim  0 offset 1307
  ( 231) dim  0 offset 1311
  ( 232) dim  0 offset 1315
  ( 233) dim  0 offset 1319
  ( 234) dim  0 offset 1323
  ( 235) dim  0 offset 1327
  ( 236) dim  0 offset 1331
  ( 237) dim  0 offset 1335
  ( 238) dim  0 offset 1339
  ( 239) dim  0 offset 1343
  ( 240) dim  0 offset 1347
  ( 241) dim  0 offset 1351
  ( 242) dim  0 offset 1355
  ( 243) dim  0 offset 1359
  ( 244) dim  0 offset 1363
  ( 245) dim  0 offset 1367
  ( 246) dim  0 offset 1371
  ( 247) dim  0 offset 1375
  ( 248) dim  0 offset 1379
  ( 249) dim  0 offset 1383
  ( 250) dim  0 offset 1387
  ( 251) dim  0 offset 1391
  ( 252) dim  0 offset 1395
  ( 253) dim  0 offset 1399
  ( 254) dim  0 offset 1403
  ( 255) dim  0 offset 1407
  ( 256) dim  0 offset 1411
  ( 257) dim  0 offset 1415
  ( 258) dim  0 offset 1419
  ( 259) dim  0 offset 1423
  ( 260) dim  0 offset 1427
  ( 261) dim  0 offset 1431
  ( 262) dim  0 offset 1435
  ( 263) dim  0 offset 1439
  ( 264) dim  0 offset 1443
  ( 265) dim  0 offset 1447
  ( 266) dim  0 offset 1451
  ( 267) dim  0 offset 1455
  ( 268) dim  0 offset 1459
  ( 269) dim  0 offset 1463
  ( 270) dim  0 offset 1467
  ( 271) dim  0 offset 1471
  ( 272) dim  0 offset 1475
  ( 273) dim  0 offset 1479
  ( 274) dim  0 offset 1483
  ( 275) dim  0 offset 1487
  ( 276) dim  0 offset 1491
  ( 277) dim  0 offset 1495
  ( 278) dim  0 offset 1499
  ( 279) dim  0 offset 1503
  ( 280) dim  0 offset 1507
  ( 281) dim  0 offset 1511
  ( 282) dim  0 offset 1515
  ( 283) dim  0 offset 1519
  ( 284) dim  0 offset 1523
  ( 285) dim  0 offset 1527
  ( 286) dim  0 offset 1531
  ( 287) dim  0 offset 1535
  ( 288) dim  0 offset 1539
  ( 289) dim  0 offset 1543
  ( 290) dim  0 offset 1547
  ( 291) dim  0 offset 1551
  ( 292) dim  0 offset 1555
  ( 293) dim  0 offset 1559
  ( 294) dim  0 offset 1563
  ( 295) dim  0 offset 1567
  ( 296) dim  0 offset 1571
  ( 297) dim  0 offset 1575
  ( 298) dim  0 offset 1579
  ( 299) dim  0 offset 1583
  ( 300) dim  0 offset 1587
  ( 301) dim  0 offset 1591
  ( 302) dim  0 offset 1595
  ( 303) dim  0 offset 1599
  ( 304) dim  0 offset 1603
  ( 305) dim  0 offset 1607
  ( 306) dim  0 offset 1611
  ( 307) dim  0 offset 1615
  ( 308) dim  0 offset 1619
  ( 309) dim  0 offset 1623
  ( 310) dim  0 offset 1627
  ( 311) dim  0 offset 1631
  ( 312) dim  0 offset 1635
  ( 313) dim  0 offset 1639
  ( 314) dim  0 offset 1643
  ( 315) dim  0 offset 1647
  ( 316) dim  0 offset 1651
  ( 317) dim  0 offset 1655
  ( 318) dim  0 offset 1659
  ( 319) dim  0 offset 1663
  ( 320) dim  0 offset 1667
  ( 321) dim  0 offset 1671
  ( 322) dim  0 offset 1675
  ( 323) dim  0 offset 1679
  ( 324) dim  0 offset 1683
  ( 325) dim  0 offset 1687
  ( 326) dim  0 offset 1691
  ( 327) dim  0 offset 1695
  ( 328) dim  0 offset 1699
  ( 329) dim  0 offset 1703
  ( 330) dim  0 offset 1707
  ( 331) dim  0 offset 1711
  ( 332) dim  0 offset 1715
  ( 333) dim  0 offset 1719
  ( 334) dim  0 offset 1723
  ( 335) dim  0 offset 1727
  ( 336) dim  0 offset 1731
  ( 337) dim  0 offset 1735
  ( 338) dim  0 offset 1739
  ( 339) dim  0 offset 1743
  ( 340) dim  0 offset 1747
  ( 341) dim  0 offset 1751
  ( 342) dim  0 offset 1755
  ( 343) dim  0 offset 1759
  ( 344) dim  0 offset 1763
  ( 345) dim  0 offset 1767
  ( 346) dim  0 offset 1771
  ( 347) dim  0 offset 1775
  ( 348) dim  0 offset 1779
  ( 349) dim  0 offset 1783
  ( 350) dim  0 offset 1787
  ( 351) dim  0 offset 1791
  ( 352) dim  0 offset 1795
  ( 353) dim  0 offset 1799
  ( 354) dim  0 offset 1803
  ( 355) dim  0 offset 1807
  ( 356) dim  0 offset 1811
  ( 357) dim  0 offset 1815
  ( 358) dim  0 offset 1819
  ( 359) dim  0 offset 1823
  ( 360) dim  0 offset 1827
  ( 361) dim  0 offset 1831
  ( 362) dim  0 offset 1835
  ( 363) dim  0 offset 1839
  ( 364) dim  0 offset 1843
  ( 365) dim  0 offset 1847
  ( 366) dim  0 offset 1851
  ( 367) dim  0 offset 1855
  ( 368) dim  0 offset 1859
  ( 369) dim  0 offset 1863
  ( 370) dim  0 offset 1867
  ( 371) dim  0 offset 1871
  ( 372) dim  0 offset 1875
  ( 373) dim  0 offset 1879
  ( 374) dim  0 offset 1883
  ( 375) dim  0 offset 1887
  ( 376) dim  0 offset 1891
  ( 377) dim  0 offset 1895
  ( 378) dim  0 offset 1899
  ( 379) dim  0 offset 1903
  ( 380) dim  0 offset 1907
  ( 381) dim  0 offset 1911
  ( 382) dim  0 offset 1915
  ( 383) dim  0 offset 1919
  ( 384) dim  0 offset 1923
  ( 385) dim  0 offset 1927
  ( 386) dim  0 offset 1931
  ( 387) dim  0 offset 1935
  ( 388) dim  0 offset 1939
  ( 389) dim  0 offset 1943
  ( 390) dim  0 offset 1947
  ( 391) dim  0 offset 1951
  ( 392) dim  0 offset 1955
  ( 393) dim  0 offset 1959
  ( 394) dim  0 offset 1963
  ( 395) dim  0 offset 1967
  ( 396) dim  0 offset 1971
  ( 397) dim  0 offset 1975
  ( 398) dim  0 offset 1979
  ( 399) dim  0 offset 1983
  ( 400) dim  0 offset 1987
  ( 401) dim  0 offset 1991
  ( 402) dim  0 offset 1995
  ( 403) dim  0 offset 1999
  ( 404) dim  0 offset 2003
  ( 405) dim  0 offset 2007
  ( 406) dim  0 offset 2011
  ( 407) dim  0 offset 2015
  ( 408) dim  0 offset 2019
  ( 409) dim  0 offset 2023
  ( 410) dim  0 offset 2027
  ( 411) dim  0 offset 2031
  ( 412) dim  0 offset 2035
  ( 413) dim  0 offset 2039
  ( 414) dim  0 offset 2043
  ( 415) dim  0 offset 2047
  ( 416) dim  0 offset 2051
  ( 417) dim  0 offset 2055
  ( 418) dim  0 offset 2059
  ( 419) dim  0 offset 2063
  ( 420) dim  0 offset 2067
  ( 421) dim  0 offset 2071
  ( 422) dim  0 offset 2075
  ( 423) dim  0 offset 2079
  ( 424) dim  0 offset 2083
  ( 425) dim  0 offset 2087
  ( 426) dim  0 offset 2091
  ( 427) dim  0 offset 2095
  ( 428) dim  0 offset 2099
  ( 429) dim  0 offset 2103
  ( 430) dim  0 offset 2107
  ( 431) dim  0 offset 2111
  ( 432) dim  0 offset 2115
  ( 433) dim  0 offset 2119
  ( 434) dim  0 offset 2123
  ( 435) dim  0 offset 2127
  ( 436) dim  0 offset 2131
  ( 437) dim  0 offset 2135
  ( 438) dim  0 offset 2139
  ( 439) dim  0 offset 2143
  ( 440) dim  0 offset 2147
  ( 441) dim  0 offset 2151
  ( 442) dim  0 offset 2155
  ( 443) dim  0 offset 2159
  ( 444) dim  0 offset 2163
  ( 445) dim  0 offset 2167
  ( 446) dim  0 offset 2171
  ( 447) dim  0 offset 2175
  ( 448) dim  0 offset 2179
  ( 449) dim  0 offset 2183
  ( 450) dim  0 offset 2187
  ( 451) dim  0 offset 2191
  ( 452) dim  0 offset 2195
  ( 453) dim  0 offset 2199
  ( 454) dim  0 offset 2203
  ( 455) dim  0 offset 2207
  ( 456) dim  0 offset 2211
  ( 457) dim  0 offset 2215
  ( 458) dim  0 offset 2219
  ( 459) dim  0 offset 2223
  ( 460) dim  0 offset 2227
  ( 461) dim  0 offset 2231
  ( 462) dim  0 offset 2235
  ( 463) dim  0 offset 2239
  ( 464) dim  0 offset 2243
  ( 465) dim  0 offset 2247
  ( 466) dim  0 offset 2251
  ( 467) dim  0 offset 2255
  ( 468) dim  0 offset 2259
  ( 469) dim  0 offset 2263
  ( 470) dim  0 offset 2267
  ( 471) dim  0 offset 2271
  ( 472) dim  0 offset 2275
  ( 473) dim  0 offset 2279
  ( 474) dim  0 offset 2283
  ( 475) dim  0 offset 2287
  ( 476) dim  0 offset 2291
  ( 477) dim  0 offset 2295
  ( 478) dim  0 offset 2299
  ( 479) dim  0 offset 2303
  ( 480) dim  0 offset 2307
  ( 481) dim  0 offset 2311
  ( 482) dim  0 offset 2315
  ( 483) dim  0 offset 2319
  ( 484) dim  0 offset 2323
  ( 485) dim  0 offset 2327
  ( 486) dim  0 offset 2331
  ( 487) dim  0 offset 2335
  ( 488) dim  0 offset 2339
  ( 489) dim  0 offset 2343
  ( 490) dim  0 offset 2347
  ( 491) dim  0 offset 2351
  ( 492) dim  0 offset 2355
  ( 493) dim  0 offset 2359
  ( 494) dim  0 offset 2363
  ( 495) dim  0 offset 2367
  ( 496) dim  0 offset 2371
  ( 497) dim  0 offset 2375
  ( 498) dim  0 offset 2379
  ( 499) dim  0 offset 2383
  ( 500) dim  0 offset 2387
  ( 501) dim  0 offset 2391
  ( 502) dim  0 offset 2395
  ( 503) dim  0 offset 2399
  ( 504) dim  0 offset 2403
  ( 505) dim  0 offset 2407
  ( 506) dim  0 offset 2411
  ( 507) dim  0 offset 2415
  ( 508) dim  0 offset 2419
  ( 509) dim  0 offset 2423
  ( 510) dim  0 offset 2427
  ( 511) dim  0 offset 2431
  ( 512) dim  0 offset 2435
  ( 513) dim  0 offset 2439
  ( 514) dim  0 offset 2443
  ( 515) dim  0 offset 2447
  ( 516) dim  0 offset 2451
  ( 517) dim  0 offset 2455
  ( 518) dim  0 offset 2459
  ( 519) dim  0 offset 2463
  ( 520) dim  0 offset 2467
  ( 521) dim  0 offset 2471
  ( 522) dim  0 offset 2475
  ( 523) dim  0 offset 2479
  ( 524) dim  0 offset 2483
  ( 525) dim  0 offset 2487
  ( 526) dim  0 offset 2491
  ( 527) dim  0 offset 2495
  ( 528) dim  0 offset 2499
  ( 529) dim  0 offset 2503
  ( 530) dim  0 offset 2507
  ( 531) dim  0 offset 2511
  ( 532) dim  0 offset 2515
  ( 533) dim  0 offset 2519
  ( 534) dim  0 offset 2523
  ( 535) dim  0 offset 2527
  ( 536) dim  0 offset 2531
  ( 537) dim  0 offset 2535
  ( 538) dim  0 offset 2539
  ( 539) dim  0 offset 2543
  ( 540) dim  0 offset 2547
  ( 541) dim  0 offset 2551
  ( 542) dim  0 offset 2555
  ( 543) dim  0 offset 2559
  ( 544) dim  0 offset 2563
  ( 545) dim  0 offset 2567
  ( 546) dim  0 offset 2571
  ( 547) dim  0 offset 2575
  ( 548) dim  0 offset 2579
  ( 549) dim  0 offset 2583
  ( 550) dim  0 offset 2587
  ( 551) dim  0 offset 2591
  ( 552) dim  0 offset 2595
  ( 553) dim  0 offset 2599
  ( 554) dim  0 offset 2603
  ( 555) dim  0 offset 2607
  ( 556) dim  0 offset 2611
  ( 557) dim  0 offset 2615
  ( 558) dim  0 offset 2619
  ( 559) dim  0 offset 2623
  ( 560) dim  0 offset 2627
  ( 561) dim  0 offset 2631
  ( 562) dim  0 offset 2635
  ( 563) dim  0 offset 2639
  ( 564) dim  0 offset 2643
  ( 565) dim  0 offset 2647
  ( 566) dim  0 offset 2651
  ( 567) dim  0 offset 2655
  ( 568) dim  0 offset 2659
  ( 569) dim  0 offset 2663
  ( 570) dim  0 offset 2667
  ( 571) dim  0 offset 2671
  ( 572) dim  0 offset 2675
  ( 573) dim  0 offset 2679
  ( 574) dim  0 offset 2683
  ( 575) dim  0 offset 2687
  ( 576) dim  0 offset 2691
  ( 577) dim  0 offset 2695
  ( 578) dim  0 offset 2699
  ( 579) dim  0 offset 2703
  ( 580) dim  0 offset 2707
  ( 581) dim  0 offset 2711
  ( 582) dim  0 offset 2715
  ( 583) dim  0 offset 2719
  ( 584) dim  0 offset 2723
  ( 585) dim  0 offset 2727
  ( 586) dim  0 offset 2731
  ( 587) dim  0 offset 2735
  ( 588) dim  0 offset 2739
  ( 589) dim  0 offset 2743
  ( 590) dim  0 offset 2747
  ( 591) dim  0 offset 2751
  ( 592) dim  0 offset 2755
  ( 593) dim  0 offset 2759
  ( 594) dim  0 offset 2763
  ( 595) dim  0 offset 2767
  ( 596) dim  0 offset 2771
  ( 597) dim  0 offset 2775
  ( 598) dim  0 offset 2779
  ( 599) dim  0 offset 2783
  ( 600) dim  0 offset 2787
  ( 601) dim  0 offset 2791
  ( 602) dim  0 offset 2795
  ( 603) dim  0 offset 2799
  ( 604) dim  0 offset 2803
  ( 605) dim  0 offset 2807
  ( 606) dim  0 offset 2811
  ( 607) dim  0 offset 2815
  ( 608) dim  0 offset 2819
  ( 609) dim  0 offset 2823
  ( 610) dim  0 offset 2827
  ( 611) dim  0 offset 2831
  ( 612) dim  0 offset 2835
  ( 613) dim  0 offset 2839
  ( 614) dim  0 offset 2843
  ( 615) dim  0 offset 2847
  ( 616) dim  0 offset 2851
  ( 617) dim  0 offset 2855
  ( 618) dim  0 offset 2859
  ( 619) dim  0 offset 2863
  ( 620) dim  0 offset 2867
  ( 621) dim  0 offset 2871
  ( 622) dim  0 offset 2875
  ( 623) dim  0 offset 2879
  ( 624) dim  0 offset 2883
  ( 625) dim  0 offset 2887
  ( 626) dim  0 offset 2891
  ( 627) dim  0 offset 2895
  ( 628) dim  0 offset 2899
  ( 629) dim  0 offset 2903
  ( 630) dim  0 offset 2907
  ( 631) dim  0 offset 2911
  ( 632) dim  0 offset 2915
  ( 633) dim  0 offset 2919
  ( 634) dim  0 offset 2923
  ( 635) dim  0 offset 2927
  ( 636) dim  0 offset 2931
  ( 637) dim  0 offset 2935
  ( 638) dim  0 offset 2939
  ( 639) dim  0 offset 2943
  ( 640) dim  0 offset 2947
  ( 641) dim  0 offset 2951
  ( 642) dim  0 offset 2955
  ( 643) dim  0 offset 2959
  ( 644) dim  0 offset 2963
  ( 645) dim  0 offset 2967
  ( 646) dim  0 offset 2971
  ( 647) dim  0 offset 2975
  ( 648) dim  0 offset 2979
  ( 649) dim  0 offset 2983
  ( 650) dim  0 offset 2987
  ( 651) dim  0 offset 2991
  ( 652) dim  0 offset 2995
  ( 653) dim  0 offset 2999
  ( 654) dim  0 offset 3003
  ( 655) dim  0 offset 3007
  ( 656) dim  0 offset 3011
  ( 657) dim  0 offset 3015
  ( 658) dim  0 offset 3019
  ( 659) dim  0 offset 3023
  ( 660) dim  0 offset 3027
  ( 661) dim  0 offset 3031
  ( 662) dim  0 offset 3035
  ( 663) dim  0 offset 3039
  ( 664) dim  0 offset 3043
  ( 665) dim  0 offset 3047
  ( 666) dim  0 offset 3051
  ( 667) dim  0 offset 3055
  ( 668) dim  0 offset 3059
  ( 669) dim  0 offset 3063
  ( 670) dim  0 offset 3067
  ( 671) dim  0 offset 3071
  ( 672) dim  0 offset 3075
  ( 673) dim  0 offset 3079
  ( 674) dim  0 offset 3083
  ( 675) dim  0 offset 3087
  ( 676) dim  0 offset 3091
  ( 677) dim  0 offset 3095
  ( 678) dim  0 offset 3099
  ( 679) dim  0 offset 3103
  ( 680) dim  0 offset 3107
  ( 681) dim  0 offset 3111
  ( 682) dim  0 offset 3115
  ( 683) dim  0 offset 3119
  ( 684) dim  0 offset 3123
  ( 685) dim  0 offset 3127
  ( 686) dim  0 offset 3131
  ( 687) dim  0 offset 3135
  ( 688) dim  0 offset 3139
  ( 689) dim  0 offset 3143
  ( 690) dim  0 offset 3147
  ( 691) dim  0 offset 3151
  ( 692) dim  0 offset 3155
  ( 693) dim  0 offset 3159
  ( 694) dim  0 offset 3163
  ( 695) dim  0 offset 3167
  ( 696) dim  0 offset 3171
  ( 697) dim  0 offset 3175
  ( 698) dim  0 offset 3179
  ( 699) dim  0 offset 3183
  ( 700) dim  0 offset 3187
  ( 701) dim  0 offset 3191
  ( 702) dim  0 offset 3195
  ( 703) dim  0 offset 3199
  ( 704) dim  0 offset 3203
  ( 705) dim  0 offset 3207
  ( 706) dim  0 offset 3211
  ( 707) dim  0 offset 3215
  ( 708) dim  0 offset 3219
  ( 709) dim  0 offset 3223
  ( 710) dim  0 offset 3227
  ( 711) dim  0 offset 3231
  ( 712) dim  0 offset 3235
  ( 713) dim  0 offset 3239
  ( 714) dim  0 offset 3243
  ( 715) dim  0 offset 3247
  ( 716) dim  0 offset 3251
  ( 717) dim  0 offset 3255
  ( 718) dim  0 offset 3259
  ( 719) dim  0 offset 3263
  ( 720) dim  0 offset 3267
  ( 721) dim  0 offset 3271
  ( 722) dim  0 offset 3275
  ( 723) dim  0 offset 3279
  ( 724) dim  0 offset 3283
  ( 725) dim  0 offset 3287
  ( 726) dim  0 offset 3291
  ( 727) dim  0 offset 3295
  ( 728) dim  0 offset 3299
Process 1:
  field 2 "Alpha" with 1 components
Process 0:
  (   0) dim  1 offset   9
  (   1) dim  1 offset  19
  (   2) dim  1 offset  29
  (   3) dim  1 offset  39
  (   4) dim  1 offset  49
  (   5) dim  1 offset  59
  (   6) dim  1 offset  69
  (   7) dim  1 offset  79
  (   8) dim  1 offset  89
  (   9) dim  1 offset  99
  (  10) dim  1 offset 109
  (  11) dim  1 offset 119
  (  12) dim  1 offset 129
  (  13) dim  1 offset 139
  (  14) dim  1 offset 149
  (  15) dim  1 offset 159
  (  16) dim  1 offset 169
  (  17) dim  1 offset 179
  (  18) dim  1 offset 189
  (  19) dim  1 offset 199
  (  20) dim  1 offset 209
  (  21) dim  1 offset 219
  (  22) dim  1 offset 229
  (  23) dim  1 offset 239
  (  24) dim  1 offset 249
  (  25) dim  1 offset 259
  (  26) dim  1 offset 269
  (  27) dim  1 offset 279
  (  28) dim  1 offset 289
  (  29) dim  1 offset 299
  (  30) dim  1 offset 309
  (  31) dim  1 offset 319
  (  32) dim  1 offset 329
  (  33) dim  1 offset 339
  (  34) dim  1 offset 349
  (  35) dim  1 offset 359
  (  36) dim  1 offset 369
  (  37) dim  1 offset 379
  (  38) dim  1 offset 389
  (  39) dim  1 offset 399
  (  40) dim  1 offset 409
  (  41) dim  1 offset 419
  (  42) dim  1 offset 429
  (  43) dim  1 offset 439
  (  44) dim  1 offset 449
  (  45) dim  1 offset 459
  (  46) dim  1 offset 469
  (  47) dim  1 offset 479
  (  48) dim  1 offset 489
  (  49) dim  1 offset 499
  (  50) dim  1 offset 509
  (  51) dim  1 offset 519
  (  52) dim  1 offset 529
  (  53) dim  1 offset 539
  (  54) dim  1 offset 549
  (  55) dim  1 offset 559
  (  56) dim  1 offset 569
  (  57) dim  1 offset 579
  (  58) dim  1 offset 589
  (  59) dim  1 offset 599
  (  60) dim  1 offset 609
  (  61) dim  1 offset 619
  (  62) dim  1 offset 629
  (  63) dim  1 offset 639
  (  64) dim  1 offset 643
  (  65) dim  1 offset 647
  (  66) dim  1 offset 651
  (  67) dim  1 offset 655
  (  68) dim  1 offset 659
  (  69) dim  1 offset 663
  (  70) dim  1 offset 667
  (  71) dim  1 offset 671
  (  72) dim  1 offset 675
  (  73) dim  1 offset 679
  (  74) dim  1 offset 683
  (  75) dim  1 offset 687
  (  76) dim  1 offset 691
  (  77) dim  1 offset 695
  (  78) dim  1 offset 699
  (  79) dim  1 offset 703
  (  80) dim  1 offset 707
  (  81) dim  1 offset 711
  (  82) dim  1 offset 715
  (  83) dim  1 offset 719
  (  84) dim  1 offset 723
  (  85) dim  1 offset 727
  (  86) dim  1 offset 731
  (  87) dim  1 offset 735
  (  88) dim  1 offset 739
  (  89) dim  1 offset 743
  (  90) dim  1 offset 747
  (  91) dim  1 offset 751
  (  92) dim  1 offset 755
  (  93) dim  1 offset 759
  (  94) dim  1 offset 763
  (  95) dim  1 offset 767
  (  96) dim  1 offset 771
  (  97) dim  1 offset 775
  (  98) dim  1 offset 779
  (  99) dim  1 offset 783
  ( 100) dim  1 offset 787
  ( 101) dim  1 offset 791
  ( 102) dim  1 offset 795
  ( 103) dim  1 offset 799
  ( 104) dim  1 offset 803
  ( 105) dim  1 offset 807
  ( 106) dim  1 offset 811
  ( 107) dim  1 offset 815
  ( 108) dim  1 offset 819
  ( 109) dim  1 offset 823
  ( 110) dim  1 offset 827
  ( 111) dim  1 offset 831
  ( 112) dim  1 offset 835
  ( 113) dim  1 offset 839
  ( 114) dim  1 offset 843
  ( 115) dim  1 offset 847
  ( 116) dim  1 offset 851
  ( 117) dim  1 offset 855
  ( 118) dim  1 offset 859
  ( 119) dim  1 offset 863
  ( 120) dim  1 offset 867
  ( 121) dim  1 offset 871
  ( 122) dim  1 offset 875
  ( 123) dim  1 offset 879
  ( 124) dim  1 offset 883
  ( 125) dim  1 offset 887
  ( 126) dim  1 offset 891
  ( 127) dim  1 offset 895
  ( 128) dim  1 offset 899
  ( 129) dim  1 offset 903
  ( 130) dim  1 offset 907
  ( 131) dim  1 offset 911
  ( 132) dim  1 offset 915
  ( 133) dim  1 offset 919
  ( 134) dim  1 offset 923
  ( 135) dim  1 offset 927
  ( 136) dim  1 offset 931
  ( 137) dim  1 offset 935
  ( 138) dim  1 offset 939
  ( 139) dim  1 offset 943
  ( 140) dim  1 offset 947
  ( 141) dim  1 offset 951
  ( 142) dim  1 offset 955
  ( 143) dim  1 offset 959
  ( 144) dim  1 offset 963
  ( 145) dim  1 offset 967
  ( 146) dim  1 offset 971
  ( 147) dim  1 offset 975
  ( 148) dim  1 offset 979
  ( 149) dim  1 offset 983
  ( 150) dim  1 offset 987
  ( 151) dim  1 offset 991
  ( 152) dim  1 offset 995
  ( 153) dim  1 offset 999
  ( 154) dim  1 offset 1003
  ( 155) dim  1 offset 1007
  ( 156) dim  1 offset 1011
  ( 157) dim  1 offset 1015
  ( 158) dim  1 offset 1019
  ( 159) dim  1 offset 1023
  ( 160) dim  1 offset 1027
  ( 161) dim  1 offset 1031
  ( 162) dim  1 offset 1035
  ( 163) dim  1 offset 1039
  ( 164) dim  1 offset 1043
  ( 165) dim  1 offset 1047
  ( 166) dim  1 offset 1051
  ( 167) dim  1 offset 1055
  ( 168) dim  1 offset 1059
  ( 169) dim  1 offset 1063
  ( 170) dim  1 offset 1067
  ( 171) dim  1 offset 1071
  ( 172) dim  1 offset 1075
  ( 173) dim  1 offset 1079
  ( 174) dim  1 offset 1083
  ( 175) dim  1 offset 1087
  ( 176) dim  1 offset 1091
  ( 177) dim  1 offset 1095
  ( 178) dim  1 offset 1099
  ( 179) dim  1 offset 1103
  ( 180) dim  1 offset 1107
  ( 181) dim  1 offset 1111
  ( 182) dim  1 offset 1115
  ( 183) dim  1 offset 1119
  ( 184) dim  1 offset 1123
  ( 185) dim  1 offset 1127
  ( 186) dim  1 offset 1131
  ( 187) dim  1 offset 1135
  ( 188) dim  1 offset 1139
  ( 189) dim  1 offset 1143
  ( 190) dim  1 offset 1147
  ( 191) dim  1 offset 1151
  ( 192) dim  1 offset 1155
  ( 193) dim  1 offset 1159
  ( 194) dim  1 offset 1163
  ( 195) dim  1 offset 1167
  ( 196) dim  1 offset 1171
  ( 197) dim  1 offset 1175
  ( 198) dim  1 offset 1179
  ( 199) dim  1 offset 1183
  ( 200) dim  1 offset 1187
  ( 201) dim  1 offset 1191
  ( 202) dim  1 offset 1195
  ( 203) dim  1 offset 1199
  ( 204) dim  1 offset 1203
  ( 205) dim  1 offset 1207
  ( 206) dim  1 offset 1211
  ( 207) dim  1 offset 1215
  ( 208) dim  1 offset 1219
  ( 209) dim  1 offset 1223
  ( 210) dim  1 offset 1227
  ( 211) dim  1 offset 1231
  ( 212) dim  1 offset 1235
  ( 213) dim  1 offset 1239
  ( 214) dim  1 offset 1243
  ( 215) dim  1 offset 1247
  ( 216) dim  1 offset 1251
  ( 217) dim  1 offset 1255
  ( 218) dim  1 offset 1259
  ( 219) dim  1 offset 1263
  ( 220) dim  1 offset 1267
  ( 221) dim  1 offset 1271
  ( 222) dim  1 offset 1275
  ( 223) dim  1 offset 1279
  ( 224) dim  1 offset 1283
  ( 225) dim  1 offset 1287
  ( 226) dim  1 offset 1291
  ( 227) dim  1 offset 1295
  ( 228) dim  1 offset 1299
  ( 229) dim  1 offset 1303
  ( 230) dim  1 offset 1307
  ( 231) dim  1 offset 1311
  ( 232) dim  1 offset 1315
  ( 233) dim  1 offset 1319
  ( 234) dim  1 offset 1323
  ( 235) dim  1 offset 1327
  ( 236) dim  1 offset 1331
  ( 237) dim  1 offset 1335
  ( 238) dim  1 offset 1339
  ( 239) dim  1 offset 1343
  ( 240) dim  1 offset 1347
  ( 241) dim  1 offset 1351
  ( 242) dim  1 offset 1355
  ( 243) dim  1 offset 1359
  ( 244) dim  1 offset 1363
  ( 245) dim  1 offset 1367
  ( 246) dim  1 offset 1371
  ( 247) dim  1 offset 1375
  ( 248) dim  1 offset 1379
  ( 249) dim  1 offset 1383
  ( 250) dim  1 offset 1387
  ( 251) dim  1 offset 1391
  ( 252) dim  1 offset 1395
  ( 253) dim  1 offset 1399
  ( 254) dim  1 offset 1403
  ( 255) dim  1 offset 1407
  ( 256) dim  1 offset 1411
  ( 257) dim  1 offset 1415
  ( 258) dim  1 offset 1419
  ( 259) dim  1 offset 1423
  ( 260) dim  1 offset 1427
  ( 261) dim  1 offset 1431
  ( 262) dim  1 offset 1435
  ( 263) dim  1 offset 1439
  ( 264) dim  1 offset 1443
  ( 265) dim  1 offset 1447
  ( 266) dim  1 offset 1451
  ( 267) dim  1 offset 1455
  ( 268) dim  1 offset 1459
  ( 269) dim  1 offset 1463
  ( 270) dim  1 offset 1467
  ( 271) dim  1 offset 1471
  ( 272) dim  1 offset 1475
  ( 273) dim  1 offset 1479
  ( 274) dim  1 offset 1483
  ( 275) dim  1 offset 1487
  ( 276) dim  1 offset 1491
  ( 277) dim  1 offset 1495
  ( 278) dim  1 offset 1499
  ( 279) dim  1 offset 1503
  ( 280) dim  1 offset 1507
  ( 281) dim  1 offset 1511
  ( 282) dim  1 offset 1515
  ( 283) dim  1 offset 1519
  ( 284) dim  1 offset 1523
  ( 285) dim  1 offset 1527
  ( 286) dim  1 offset 1531
  ( 287) dim  1 offset 1535
  ( 288) dim  1 offset 1539
  ( 289) dim  1 offset 1543
  ( 290) dim  1 offset 1547
  ( 291) dim  1 offset 1551
  ( 292) dim  1 offset 1555
  ( 293) dim  1 offset 1559
  ( 294) dim  1 offset 1563
  ( 295) dim  1 offset 1567
  ( 296) dim  1 offset 1571
  ( 297) dim  1 offset 1575
  ( 298) dim  1 offset 1579
  ( 299) dim  1 offset 1583
  ( 300) dim  1 offset 1587
  ( 301) dim  1 offset 1591
  ( 302) dim  1 offset 1595
  ( 303) dim  1 offset 1599
  ( 304) dim  1 offset 1603
  ( 305) dim  1 offset 1607
  ( 306) dim  1 offset 1611
  ( 307) dim  1 offset 1615
  ( 308) dim  1 offset 1619
  ( 309) dim  1 offset 1623
  ( 310) dim  1 offset 1627
  ( 311) dim  1 offset 1631
  ( 312) dim  1 offset 1635
  ( 313) dim  1 offset 1639
  ( 314) dim  1 offset 1643
  ( 315) dim  1 offset 1647
  ( 316) dim  1 offset 1651
  ( 317) dim  1 offset 1655
  ( 318) dim  1 offset 1659
  ( 319) dim  1 offset 1663
  ( 320) dim  1 offset 1667
  ( 321) dim  1 offset 1671
  ( 322) dim  1 offset 1675
  ( 323) dim  1 offset 1679
  ( 324) dim  1 offset 1683
  ( 325) dim  1 offset 1687
  ( 326) dim  1 offset 1691
  ( 327) dim  1 offset 1695
  ( 328) dim  1 offset 1699
  ( 329) dim  1 offset 1703
  ( 330) dim  1 offset 1707
  ( 331) dim  1 offset 1711
  ( 332) dim  1 offset 1715
  ( 333) dim  1 offset 1719
  ( 334) dim  1 offset 1723
  ( 335) dim  1 offset 1727
  ( 336) dim  1 offset 1731
  ( 337) dim  1 offset 1735
  ( 338) dim  1 offset 1739
  ( 339) dim  1 offset 1743
  ( 340) dim  1 offset 1747
  ( 341) dim  1 offset 1751
  ( 342) dim  1 offset 1755
  ( 343) dim  1 offset 1759
  ( 344) dim  1 offset 1763
  ( 345) dim  1 offset 1767
  ( 346) dim  1 offset 1771
  ( 347) dim  1 offset 1775
  ( 348) dim  1 offset 1779
  ( 349) dim  1 offset 1783
  ( 350) dim  1 offset 1787
  ( 351) dim  1 offset 1791
  ( 352) dim  1 offset 1795
  ( 353) dim  1 offset 1799
  ( 354) dim  1 offset 1803
  ( 355) dim  1 offset 1807
  ( 356) dim  1 offset 1811
  ( 357) dim  1 offset 1815
  ( 358) dim  1 offset 1819
  ( 359) dim  1 offset 1823
  ( 360) dim  1 offset 1827
  ( 361) dim  1 offset 1831
  ( 362) dim  1 offset 1835
  ( 363) dim  1 offset 1839
  ( 364) dim  1 offset 1843
  ( 365) dim  1 offset 1847
  ( 366) dim  1 offset 1851
  ( 367) dim  1 offset 1855
  ( 368) dim  1 offset 1859
  ( 369) dim  1 offset 1863
  ( 370) dim  1 offset 1867
  ( 371) dim  1 offset 1871
  ( 372) dim  1 offset 1875
  ( 373) dim  1 offset 1879
  ( 374) dim  1 offset 1883
  ( 375) dim  1 offset 1887
  ( 376) dim  1 offset 1891
  ( 377) dim  1 offset 1895
  ( 378) dim  1 offset 1899
  ( 379) dim  1 offset 1903
  ( 380) dim  1 offset 1907
  ( 381) dim  1 offset 1911
  ( 382) dim  1 offset 1915
  ( 383) dim  1 offset 1919
  ( 384) dim  1 offset 1923
  ( 385) dim  1 offset 1927
  ( 386) dim  1 offset 1931
  ( 387) dim  1 offset 1935
  ( 388) dim  1 offset 1939
  ( 389) dim  1 offset 1943
  ( 390) dim  1 offset 1947
  ( 391) dim  1 offset 1951
  ( 392) dim  1 offset 1955
  ( 393) dim  1 offset 1959
  ( 394) dim  1 offset 1963
  ( 395) dim  1 offset 1967
  ( 396) dim  1 offset 1971
  ( 397) dim  1 offset 1975
  ( 398) dim  1 offset 1979
  ( 399) dim  1 offset 1983
  ( 400) dim  1 offset 1987
  ( 401) dim  1 offset 1991
  ( 402) dim  1 offset 1995
  ( 403) dim  1 offset 1999
  ( 404) dim  1 offset 2003
  ( 405) dim  1 offset 2007
  ( 406) dim  1 offset 2011
  ( 407) dim  1 offset 2015
  ( 408) dim  1 offset 2019
  ( 409) dim  1 offset 2023
  ( 410) dim  1 offset 2027
  ( 411) dim  1 offset 2031
  ( 412) dim  1 offset 2035
  ( 413) dim  1 offset 2039
  ( 414) dim  1 offset 2043
  ( 415) dim  1 offset 2047
  ( 416) dim  1 offset 2051
  ( 417) dim  1 offset 2055
  ( 418) dim  1 offset 2059
  ( 419) dim  1 offset 2063
  ( 420) dim  1 offset 2067
  ( 421) dim  1 offset 2071
  ( 422) dim  1 offset 2075
  ( 423) dim  1 offset 2079
  ( 424) dim  1 offset 2083
  ( 425) dim  1 offset 2087
  ( 426) dim  1 offset 2091
  ( 427) dim  1 offset 2095
  ( 428) dim  1 offset 2099
  ( 429) dim  1 offset 2103
  ( 430) dim  1 offset 2107
  ( 431) dim  1 offset 2111
  ( 432) dim  1 offset 2115
  ( 433) dim  1 offset 2119
  ( 434) dim  1 offset 2123
  ( 435) dim  1 offset 2127
  ( 436) dim  1 offset 2131
  ( 437) dim  1 offset 2135
  ( 438) dim  1 offset 2139
  ( 439) dim  1 offset 2143
  ( 440) dim  1 offset 2147
  ( 441) dim  1 offset 2151
  ( 442) dim  1 offset 2155
  ( 443) dim  1 offset 2159
  ( 444) dim  1 offset 2163
  ( 445) dim  1 offset 2167
  ( 446) dim  1 offset 2171
  ( 447) dim  1 offset 2175
  ( 448) dim  1 offset 2179
  ( 449) dim  1 offset 2183
  ( 450) dim  1 offset 2187
  ( 451) dim  1 offset 2191
  ( 452) dim  1 offset 2195
  ( 453) dim  1 offset 2199
  ( 454) dim  1 offset 2203
  ( 455) dim  1 offset 2207
  ( 456) dim  1 offset 2211
  ( 457) dim  1 offset 2215
  ( 458) dim  1 offset 2219
  ( 459) dim  1 offset 2223
  ( 460) dim  1 offset 2227
  ( 461) dim  1 offset 2231
  ( 462) dim  1 offset 2235
  ( 463) dim  1 offset 2239
  ( 464) dim  1 offset 2243
  ( 465) dim  1 offset 2247
  ( 466) dim  1 offset 2251
  ( 467) dim  1 offset 2255
  ( 468) dim  1 offset 2259
  ( 469) dim  1 offset 2263
  ( 470) dim  1 offset 2267
  ( 471) dim  1 offset 2271
  ( 472) dim  1 offset 2275
  ( 473) dim  1 offset 2279
  ( 474) dim  1 offset 2283
  ( 475) dim  1 offset 2287
  ( 476) dim  1 offset 2291
  ( 477) dim  1 offset 2295
  ( 478) dim  1 offset 2299
  ( 479) dim  1 offset 2303
  ( 480) dim  1 offset 2307
  ( 481) dim  1 offset 2311
  ( 482) dim  1 offset 2315
  ( 483) dim  1 offset 2319
  ( 484) dim  1 offset 2323
  ( 485) dim  1 offset 2327
  ( 486) dim  1 offset 2331
  ( 487) dim  1 offset 2335
  ( 488) dim  1 offset 2339
  ( 489) dim  1 offset 2343
  ( 490) dim  1 offset 2347
  ( 491) dim  1 offset 2351
  ( 492) dim  1 offset 2355
  ( 493) dim  1 offset 2359
  ( 494) dim  1 offset 2363
  ( 495) dim  1 offset 2367
  ( 496) dim  1 offset 2371
  ( 497) dim  1 offset 2375
  ( 498) dim  1 offset 2379
  ( 499) dim  1 offset 2383
  ( 500) dim  1 offset 2387
  ( 501) dim  1 offset 2391
  ( 502) dim  1 offset 2395
  ( 503) dim  1 offset 2399
  ( 504) dim  1 offset 2403
  ( 505) dim  1 offset 2407
  ( 506) dim  1 offset 2411
  ( 507) dim  1 offset 2415
  ( 508) dim  1 offset 2419
  ( 509) dim  1 offset 2423
  ( 510) dim  1 offset 2427
  ( 511) dim  1 offset 2431
  ( 512) dim  1 offset 2435
  ( 513) dim  1 offset 2439
  ( 514) dim  1 offset 2443
  ( 515) dim  1 offset 2447
  ( 516) dim  1 offset 2451
  ( 517) dim  1 offset 2455
  ( 518) dim  1 offset 2459
  ( 519) dim  1 offset 2463
  ( 520) dim  1 offset 2467
  ( 521) dim  1 offset 2471
  ( 522) dim  1 offset 2475
  ( 523) dim  1 offset 2479
  ( 524) dim  1 offset 2483
  ( 525) dim  1 offset 2487
  ( 526) dim  1 offset 2491
  ( 527) dim  1 offset 2495
  ( 528) dim  1 offset 2499
  ( 529) dim  1 offset 2503
  ( 530) dim  1 offset 2507
  ( 531) dim  1 offset 2511
  ( 532) dim  1 offset 2515
  ( 533) dim  1 offset 2519
  ( 534) dim  1 offset 2523
  ( 535) dim  1 offset 2527
  ( 536) dim  1 offset 2531
  ( 537) dim  1 offset 2535
  ( 538) dim  1 offset 2539
  ( 539) dim  1 offset 2543
  ( 540) dim  1 offset 2547
  ( 541) dim  1 offset 2551
  ( 542) dim  1 offset 2555
  ( 543) dim  1 offset 2559
  ( 544) dim  1 offset 2563
  ( 545) dim  1 offset 2567
  ( 546) dim  1 offset 2571
  ( 547) dim  1 offset 2575
  ( 548) dim  1 offset 2579
  ( 549) dim  1 offset 2583
  ( 550) dim  1 offset 2587
  ( 551) dim  1 offset 2591
  ( 552) dim  1 offset 2595
  ( 553) dim  1 offset 2599
  ( 554) dim  1 offset 2603
  ( 555) dim  1 offset 2607
  ( 556) dim  1 offset 2611
  ( 557) dim  1 offset 2615
  ( 558) dim  1 offset 2619
  ( 559) dim  1 offset 2623
  ( 560) dim  1 offset 2627
  ( 561) dim  1 offset 2631
  ( 562) dim  1 offset 2635
  ( 563) dim  1 offset 2639
  ( 564) dim  1 offset 2643
  ( 565) dim  1 offset 2647
  ( 566) dim  1 offset 2651
  ( 567) dim  1 offset 2655
  ( 568) dim  1 offset 2659
  ( 569) dim  1 offset 2663
  ( 570) dim  1 offset 2667
  ( 571) dim  1 offset 2671
  ( 572) dim  1 offset 2675
  ( 573) dim  1 offset 2679
  ( 574) dim  1 offset 2683
  ( 575) dim  1 offset 2687
  ( 576) dim  1 offset 2691
  ( 577) dim  1 offset 2695
  ( 578) dim  1 offset 2699
  ( 579) dim  1 offset 2703
  ( 580) dim  1 offset 2707
  ( 581) dim  1 offset 2711
  ( 582) dim  1 offset 2715
  ( 583) dim  1 offset 2719
  ( 584) dim  1 offset 2723
  ( 585) dim  1 offset 2727
  ( 586) dim  1 offset 2731
  ( 587) dim  1 offset 2735
  ( 588) dim  1 offset 2739
  ( 589) dim  1 offset 2743
  ( 590) dim  1 offset 2747
  ( 591) dim  1 offset 2751
  ( 592) dim  1 offset 2755
  ( 593) dim  1 offset 2759
  ( 594) dim  1 offset 2763
  ( 595) dim  1 offset 2767
  ( 596) dim  1 offset 2771
  ( 597) dim  1 offset 2775
  ( 598) dim  1 offset 2779
  ( 599) dim  1 offset 2783
  ( 600) dim  1 offset 2787
  ( 601) dim  1 offset 2791
  ( 602) dim  1 offset 2795
  ( 603) dim  1 offset 2799
  ( 604) dim  1 offset 2803
  ( 605) dim  1 offset 2807
  ( 606) dim  1 offset 2811
  ( 607) dim  1 offset 2815
  ( 608) dim  1 offset 2819
  ( 609) dim  1 offset 2823
  ( 610) dim  1 offset 2827
  ( 611) dim  1 offset 2831
  ( 612) dim  1 offset 2835
  ( 613) dim  1 offset 2839
  ( 614) dim  1 offset 2843
  ( 615) dim  1 offset 2847
  ( 616) dim  1 offset 2851
  ( 617) dim  1 offset 2855
  ( 618) dim  1 offset 2859
  ( 619) dim  1 offset 2863
  ( 620) dim  1 offset 2867
  ( 621) dim  1 offset 2871
  ( 622) dim  1 offset 2875
  ( 623) dim  1 offset 2879
  ( 624) dim  1 offset 2883
  ( 625) dim  1 offset 2887
  ( 626) dim  1 offset 2891
  ( 627) dim  1 offset 2895
  ( 628) dim  1 offset 2899
  ( 629) dim  1 offset 2903
  ( 630) dim  1 offset 2907
  ( 631) dim  1 offset 2911
  ( 632) dim  1 offset 2915
  ( 633) dim  1 offset 2919
  ( 634) dim  1 offset 2923
  ( 635) dim  1 offset 2927
  ( 636) dim  1 offset 2931
  ( 637) dim  1 offset 2935
  ( 638) dim  1 offset 2939
  ( 639) dim  1 offset 2943
  ( 640) dim  1 offset 2947
  ( 641) dim  1 offset 2951
  ( 642) dim  1 offset 2955
  ( 643) dim  1 offset 2959
  ( 644) dim  1 offset 2963
  ( 645) dim  1 offset 2967
  ( 646) dim  1 offset 2971
  ( 647) dim  1 offset 2975
  ( 648) dim  1 offset 2979
  ( 649) dim  1 offset 2983
  ( 650) dim  1 offset 2987
  ( 651) dim  1 offset 2991
  ( 652) dim  1 offset 2995
  ( 653) dim  1 offset 2999
  ( 654) dim  1 offset 3003
  ( 655) dim  1 offset 3007
  ( 656) dim  1 offset 3011
  ( 657) dim  1 offset 3015
  ( 658) dim  1 offset 3019
  ( 659) dim  1 offset 3023
  ( 660) dim  1 offset 3027
  ( 661) dim  1 offset 3031
  ( 662) dim  1 offset 3035
  ( 663) dim  1 offset 3039
  ( 664) dim  1 offset 3043
  ( 665) dim  1 offset 3047
  ( 666) dim  1 offset 3051
  ( 667) dim  1 offset 3055
  ( 668) dim  1 offset 3059
  ( 669) dim  1 offset 3063
  ( 670) dim  1 offset 3067
  ( 671) dim  1 offset 3071
  ( 672) dim  1 offset 3075
  ( 673) dim  1 offset 3079
  ( 674) dim  1 offset 3083
  ( 675) dim  1 offset 3087
  ( 676) dim  1 offset 3091
  ( 677) dim  1 offset 3095
  ( 678) dim  1 offset 3099
  ( 679) dim  1 offset 3103
  ( 680) dim  1 offset 3107
  ( 681) dim  1 offset 3111
  ( 682) dim  1 offset 3115
  ( 683) dim  1 offset 3119
  ( 684) dim  1 offset 3123
  ( 685) dim  1 offset 3127
  ( 686) dim  1 offset 3131
  ( 687) dim  1 offset 3135
  ( 688) dim  1 offset 3139
  ( 689) dim  1 offset 3143
  ( 690) dim  1 offset 3147
  ( 691) dim  1 offset 3151
  ( 692) dim  1 offset 3155
  ( 693) dim  1 offset 3159
  ( 694) dim  1 offset 3163
  ( 695) dim  1 offset 3167
  ( 696) dim  1 offset 3171
  ( 697) dim  1 offset 3175
  ( 698) dim  1 offset 3179
  ( 699) dim  1 offset 3183
  ( 700) dim  1 offset 3187
  ( 701) dim  1 offset 3191
  ( 702) dim  1 offset 3195
  ( 703) dim  1 offset 3199
  ( 704) dim  1 offset 3203
  ( 705) dim  1 offset 3207
  ( 706) dim  1 offset 3211
  ( 707) dim  1 offset 3215
  ( 708) dim  1 offset 3219
  ( 709) dim  1 offset 3223
  ( 710) dim  1 offset 3227
  ( 711) dim  1 offset 3231
  ( 712) dim  1 offset 3235
  ( 713) dim  1 offset 3239
  ( 714) dim  1 offset 3243
  ( 715) dim  1 offset 3247
  ( 716) dim  1 offset 3251
  ( 717) dim  1 offset 3255
  ( 718) dim  1 offset 3259
  ( 719) dim  1 offset 3263
  ( 720) dim  1 offset 3267
  ( 721) dim  1 offset 3271
  ( 722) dim  1 offset 3275
  ( 723) dim  1 offset 3279
  ( 724) dim  1 offset 3283
  ( 725) dim  1 offset 3287
  ( 726) dim  1 offset 3291
  ( 727) dim  1 offset 3295
  ( 728) dim  1 offset 3299
Process 1:
DM Object: Parallel Mesh 2 MPI processes
  type: plex
Parallel Mesh in 3 dimensions:
  Number of 0-cells per rank: 75 75
  Number of 1-cells per rank: 170 170
  Number of 2-cells per rank: 128 128
  Number of 3-cells per rank: 32 32
Labels:
  depth: 4 strata with value/size (0 (75), 1 (170), 2 (128), 3 (32))
  celltype: 4 strata with value/size (0 (75), 1 (170), 4 (128), 7 (32))
  Cell Sets: 2 strata with value/size (1 (16), 2 (16))
Field U:
  adjacency FEM
Field Sigma:
  adjacency FEM
Field Alpha:
  adjacency FEM
