DM Object: cubit(FourSquareQ-large.exo): 12/02/2017: 09:20:39 1 MPI process
  type: plex
cubit(FourSquareQ-large.exo): 12/02/2017: 09:20:39 in 2 dimensions:
  Number of 0-cells per rank: 49
  Number of 1-cells per rank: 84
  Number of 2-cells per rank: 36
Labels:
  celltype: 3 strata with value/size (0 (49), 1 (84), 4 (36))
  depth: 3 strata with value/size (0 (49), 1 (84), 2 (36))
  Cell Sets: 4 strata with value/size (1 (9), 2 (9), 3 (9), 5 (9))
PetscViewer Object: 1 MPI process
  type: exodusii
  Filename:    FourSquareQ-large_out.exo
  exoid:       -1
  IO Mode:     1
  Mesh order:  2
PetscViewer Object: 1 MPI process
  type: exodusii
  Filename:    FourSquareQ-large_out.exo
  exoid:       65536
  IO Mode:     1
  Mesh order:  2
DM Object: cubit(FourSquareQ-large.exo): 12/02/2017: 09:20:39 1 MPI process
  type: plex
cubit(FourSquareQ-large.exo): 12/02/2017: 09:20:39 in 2 dimensions:
  Number of 0-cells per rank: 49
  Number of 1-cells per rank: 84
  Number of 2-cells per rank: 36
Labels:
  celltype: 3 strata with value/size (0 (49), 1 (84), 4 (36))
  depth: 3 strata with value/size (0 (49), 1 (84), 2 (36))
  Cell Sets: 4 strata with value/size (1 (9), 2 (9), 3 (9), 5 (9))
